{
    "_id": "5cbEwgPLlMWGGVxN",
    "content": "<h1>Dandy</h1>\n<p>You are a genteel master of style, culture, and decorum, aware of even the subtlest rules of etiquette. Whether you were born into status, acquired it later in life, or merely pretend to possess it, you look and act your part to manicured perfection.</p>\n<h2>@Compendium[pf2e.feats-srd.Dandy Dedication]{Dandy Dedication} Feat 2</h2>\n<p><strong>Prerequisites</strong> trained in Diplomacy</p>\n<hr />\n<p>You are a consummate student of dignity, etiquette, and fashion. You can use the Diplomacy skill to perform the special downtime activity Influence Rumor, spending at least one day of downtime to manipulate the course, tone, or content of a rumor to your benefit. The difficulty of Influencing a Rumor is determined by the GM based on the size of the community, the relative perceptiveness of the inhabitants, and the agency of other rumormongers, but it typically starts with at least DC 15 for a small village and increases to at least DC 20 for a town, at least DC 30 for a city, and at  least DC 40 for a metropolis.</p>\n<p>You become trained in Deception and Society; if you were already trained, you become an expert instead.</p>\n<p><strong>Special</strong> You can't select another dedication feat until you have gained two other feats from the dandy archetype.</p>\n<h2>@Compendium[pf2e.feats-srd.Distracting Flattery]{Distracting Flattery} Feat 4</h2>\n<p><strong>Prerequisites</strong> Dandy Dedication, expert in Deception</p>\n<p><strong>Trigger</strong> You observe a target's attitude toward yourself or your allies decrease as a result of an ally's behavior.</p>\n<hr />\n<p>You know how to maintain a good impression and manage your image, even while keeping uncouth company. Make a Deception check against the target's Will DC. Regardless of your result, the target is temporarily immune to your Distracting Flattery for 10 minutes.</p>\n<hr />\n<p><strong>Success</strong> The target's attitude doesn't decrease as a result of your ally's social blunder.</p>\n<p><strong>Failure</strong> The target's attitude decreases, as normal.</p>\n<p><strong>Critical Failure</strong> Your attempt makes matters worse, decreasing the target's attitude toward you by one step, in addition to any changes from the behavior that triggered this reaction.</p>\n<h2>@Compendium[pf2e.feats-srd.Gossip Lore]{Gossip Lore} Feat 4</h2>\n<p><strong>Prerequisites</strong> Dandy Dedication</p>\n<hr />\n<p>Your time gossiping in fashionable salons keeps you informed on every topic. You are trained in Gossip Lore, a special Lore skill that can be used only to Recall Knowledge, but on any topic. If you fail a check to Recall Knowledge with Gossip Lore, you get the effects of the Dubious Knowledge skill feat.</p>\n<p>If you have legendary proficiency in Society, you gain expert proficiency in Gossip Lore, but you can't increase your proficiency rank in Gossip Lore by any other means.</p>\n<h2>@Compendium[pf2e.feats-srd.Fabricated Connections]{Fabricated Connections} Feat 7</h2>\n<p><strong>Prerequisites</strong> Dandy Dedication, master in Deception</p>\n<hr />\n<p>You can lie about having taken an action so convincingly that you acquire all the tangible benefits of having successfully completed it. You can roll Deception in place of a different skill when attempting to Earn Income, Make an Impression, Request, or Subsist. You can use Fabricated Connections to Make an Impression or Request once per day, and you can also use it once per week to Earn Income or Subsist.</p>\n<h2>@Compendium[pf2e.feats-srd.Party Crasher]{Party Crasher} Feat 7</h2>\n<p><strong>Prerequisites</strong> Dandy Dedication, master in Society</p>\n<hr />\n<p>You attend all the fashionable society parties, no matter how exclusive they might be. Any time you encounter a social event you would ordinarily be denied access to, such as a coronation, royal gala, or other society function, you can spend [[/r 1d4 #hours]]{1d4 hours} to secure entry without the need for a skill check. You find invitations, invitees looking for  fashionable dates, temporary jobs with the caterers, event staff willing to look the other way, or some other mode of  access for yourself and your allies.</p>\n<p>This ability doesn't apply to secret events or other small private gatherings with no staff, dates, or outsiders involved.</p>\n",
    "flags": {},
    "name": "Dandy",
    "permission": {
        "default": 0
    }
}
