{
    "_id": "moVRsnpjB5THCwxE",
    "data": {
        "boosts": {
            "0": {
                "value": [
                    "con",
                    "dex"
                ]
            },
            "1": {
                "value": [
                    "cha",
                    "con",
                    "dex",
                    "int",
                    "str",
                    "wis"
                ]
            }
        },
        "description": {
            "value": "<p>You eked out a living by picking pockets on the streets of a major city, never knowing where you'd find your next meal. While some folk adventure for the glory, you do so to survive.</p>\n<p>Choose two ability boosts. One must be to <strong>Dexterity</strong> or <strong>Constitution</strong>, and one is a free ability boost.</p>\n<p>You're trained in the Thievery skill and a Lore skill for the city you lived in as a street urchin (such as Absalom Lore or Magnimar Lore). You gain the @Compendium[pf2e.feats-srd.Pickpocket]{Pickpocket} skill feat.</p>"
        },
        "items": {
            "jpni5": {
                "id": "jDdOqFmZLwE4dblQ",
                "img": "systems/pf2e/icons/features/feats/feats.webp",
                "level": "1",
                "name": "Pickpocket",
                "pack": "pf2e.feats-srd"
            }
        },
        "rules": [],
        "source": {
            "value": "Pathfinder Core Rulebook"
        },
        "trainedLore": "<City> Lore",
        "trainedSkills": {
            "value": [
                "thi"
            ]
        },
        "traits": {
            "custom": "",
            "rarity": {
                "value": "common"
            },
            "value": []
        }
    },
    "effects": [],
    "flags": {},
    "img": "systems/pf2e/icons/default-icons/background.svg",
    "name": "Street Urchin",
    "type": "background"
}
