{
    "_id": "VMIwKvpQHh91cQoa",
    "data": {
        "baseItem": null,
        "brokenThreshold": {
            "value": 0
        },
        "bulkCapacity": {
            "value": ""
        },
        "collapsed": {
            "value": false
        },
        "containerId": {
            "value": null
        },
        "description": {
            "value": "<p>This clockwork footwear features a marvelous mechanical heel built into the base to increase your speed. When you lean your weight onto your heel, a springboard triggers and pops out small metal wheels that propel you forward. You gain a +5-foot item bonus to your Speed.</p>"
        },
        "equipped": {
            "value": false
        },
        "equippedBulk": {
            "value": ""
        },
        "hardness": {
            "value": 0
        },
        "hp": {
            "value": 0
        },
        "identification": {
            "misidentified": {},
            "status": "identified",
            "unidentified": {
                "data": {
                    "description": {
                        "value": ""
                    }
                },
                "img": "",
                "name": ""
            }
        },
        "invested": {
            "value": null
        },
        "level": {
            "value": 7
        },
        "maxHp": {
            "value": 0
        },
        "negateBulk": {
            "value": "0"
        },
        "preciousMaterial": {
            "value": null
        },
        "preciousMaterialGrade": {
            "value": null
        },
        "price": {
            "value": "300 gp"
        },
        "quantity": {
            "value": 1
        },
        "rules": [
            {
                "key": "FlatModifier",
                "selector": "land-speed",
                "type": "item",
                "value": 5
            }
        ],
        "size": {
            "value": "med"
        },
        "source": {
            "value": "Pathfinder Lost Omens: The Grand Bazaar"
        },
        "stackGroup": {
            "value": ""
        },
        "traits": {
            "custom": "",
            "rarity": {
                "value": "rare"
            },
            "value": [
                "clockwork"
            ]
        },
        "usage": {
            "value": "wornshoes"
        },
        "weight": {
            "value": "L"
        }
    },
    "effects": [],
    "flags": {},
    "img": "systems/pf2e/icons/default-icons/equipment.svg",
    "name": "Clockwork Heels",
    "type": "equipment"
}
