{
    "_id": "Ksz7kd6P9uKR8uLo",
    "data": {
        "activation": {
            "condition": "",
            "cost": 0,
            "type": ""
        },
        "autoDestroy": {
            "_deprecated": true,
            "value": true
        },
        "autoUse": {
            "_deprecated": true,
            "value": true
        },
        "baseItem": null,
        "brokenThreshold": {
            "value": 0
        },
        "bulkCapacity": {
            "value": ""
        },
        "charges": {
            "_deprecated": true,
            "max": 1,
            "value": 1
        },
        "collapsed": {
            "value": false
        },
        "consumableType": {
            "value": "other"
        },
        "consume": {
            "_deprecated": true,
            "value": ""
        },
        "containerId": {
            "value": null
        },
        "description": {
            "value": "<p><strong>Activate</strong><span class=\"pf2-icon\">1</span> or <span class=\"pf2-icon\">2</span> Interact</p>\n<p><strong>Requirements</strong> The round you activate the rejuvenator, you must first spend either 1 or 2 Interact actions to wind the device.</p>\n<hr />\n<p>This device has four finger-like latches centered around a whirring mass of gears.</p>\n<p>After winding the <em>clockwork rejuvenator</em>, you can latch it to the chest of an adjacent recently dead creature and return it to life. If you wound the rejuvenator using 1 Interact action, you can return to life a creature that died in the last 2 rounds, restoring it to 1 HP. If you wound the rejuvenator using 2 Interact actions, you can return to life a creature that died within the last 3 rounds. After attaching, the device continues to whirl for 1 minute, restoring 10 HP per round to the target. Thereafter, the <em>clockwork rejuvenator</em> loses its magic and becomes inert.</p>"
        },
        "duration": {
            "units": "",
            "value": null
        },
        "equipped": {
            "value": false
        },
        "equippedBulk": {
            "value": ""
        },
        "hardness": {
            "value": 0
        },
        "hp": {
            "value": 0
        },
        "identification": {
            "misidentified": {},
            "status": "identified",
            "unidentified": {
                "data": {
                    "description": {
                        "value": ""
                    }
                },
                "img": "",
                "name": ""
            }
        },
        "level": {
            "value": 18
        },
        "maxHp": {
            "value": 0
        },
        "negateBulk": {
            "value": "0"
        },
        "preciousMaterial": {
            "value": null
        },
        "preciousMaterialGrade": {
            "value": null
        },
        "price": {
            "value": "4500 gp"
        },
        "quantity": {
            "value": 1
        },
        "range": {
            "long": null,
            "units": "",
            "value": null
        },
        "rules": [],
        "size": {
            "value": "med"
        },
        "source": {
            "value": "Pathfinder #161: Belly of the Black Whale"
        },
        "spell": {
            "data": null,
            "heightenedLevel": null
        },
        "stackGroup": {
            "value": ""
        },
        "target": {
            "type": "",
            "units": "",
            "value": null
        },
        "traits": {
            "custom": "",
            "rarity": {
                "value": "rare"
            },
            "value": [
                "clockwork",
                "consumable",
                "magical",
                "necromancy"
            ]
        },
        "usage": {
            "value": "held-in-one-hand"
        },
        "uses": {
            "autoDestroy": true,
            "autoUse": true,
            "max": 0,
            "per": null,
            "value": 0
        },
        "weight": {
            "value": "L"
        }
    },
    "effects": [],
    "flags": {},
    "img": "systems/pf2e/icons/equipment/consumables/other-consumables/clockwork-rejuvenator.webp",
    "name": "Clockwork Rejuvenator",
    "type": "consumable"
}
