{
    "_id": "n4kPBFzVh5LcJAMA",
    "data": {
        "armor": {
            "value": 2
        },
        "armorType": {
            "value": "light"
        },
        "baseItem": "chain-shirt",
        "brokenThreshold": {
            "value": 0
        },
        "bulkCapacity": {
            "value": ""
        },
        "check": {
            "value": -1
        },
        "collapsed": {
            "value": false
        },
        "containerId": {
            "value": null
        },
        "description": {
            "value": "<p>Rose gold and copper rings in this <em>+2 resilient chain shirt</em> form a vague bird shape. The jingling links tinkle musically, almost like birdsong. While you wear the armor, effects with the auditory trait must first counteract the <em>harmonic hauberk</em> or they have no effect on you.</p>\n<p>The <em>harmonic hauberk</em> attempts to counteract <em>@Compendium[pf2e.spells-srd.Silence]{Silence}</em> spells cast on you and 4th‑level or higher heightened <em>silence</em> spells the first time the armor enters their area (counteract level 4, counteract modifier [[/r 1d20+20 #Counteract]]{+20}). After failing to counteract a <em>silence</em> spell, the armor can't attempt to counteract the same spell again, even if you leave and enter the spell's area multiple times.</p>\n<hr />\n<p><strong>Activate</strong> <span class=\"pf2-icon\">1</span> command;</p>\n<p><strong>Frequency</strong> once per day;</p>\n<p><strong>Requirements</strong> You have a pool of Focus Points and at least one composition spell;</p>\n<p><strong>Effect</strong> You gain 1 Focus Point and immediately use the Focus Point to cast<em> @Compendium[pf2e.spells-srd.Lingering Composition]{Lingering Composition}</em>, using your Performance check to determine the effects of the spell, followed by the <em>@Compendium[pf2e.spells-srd.Inspire Defense]{Inspire Defense}</em>. You can use this activation to cast those spells even if you don't have the @Compendium[pf2e.feats-srd.Lingering Composition]{Lingering Composition} or @Compendium[pf2e.feats-srd.Inspire Defense]{Inspire Defense} feats.</p>"
        },
        "dex": {
            "value": 3
        },
        "equipped": {
            "value": false
        },
        "equippedBulk": {
            "value": ""
        },
        "group": {
            "value": "chain"
        },
        "hardness": {
            "value": 0
        },
        "hp": {
            "value": 0
        },
        "identification": {
            "misidentified": {},
            "status": "identified",
            "unidentified": {
                "data": {
                    "description": {
                        "value": ""
                    }
                },
                "img": "",
                "name": ""
            }
        },
        "invested": {
            "value": null
        },
        "level": {
            "value": 13
        },
        "maxHp": {
            "value": 0
        },
        "negateBulk": {
            "value": "0"
        },
        "potencyRune": {
            "value": 2
        },
        "preciousMaterial": {
            "value": null
        },
        "preciousMaterialGrade": {
            "value": null
        },
        "price": {
            "value": "2500 gp"
        },
        "propertyRune1": {
            "value": ""
        },
        "propertyRune2": {
            "value": ""
        },
        "propertyRune3": {
            "value": ""
        },
        "propertyRune4": {
            "value": ""
        },
        "quantity": {
            "value": 1
        },
        "resiliencyRune": {
            "value": "resilient"
        },
        "rules": [],
        "size": {
            "value": "med"
        },
        "source": {
            "value": "Pathfinder Lost Omens: The Grand Bazaar"
        },
        "speed": {
            "value": 0
        },
        "stackGroup": {
            "value": ""
        },
        "strength": {
            "value": 12
        },
        "traits": {
            "custom": "",
            "rarity": {
                "value": "uncommon"
            },
            "value": [
                "auditory",
                "flexible",
                "focused",
                "illusion",
                "invested",
                "noisy"
            ]
        },
        "usage": {
            "value": "wornarmor"
        },
        "weight": {
            "value": "1"
        }
    },
    "effects": [],
    "flags": {},
    "img": "systems/pf2e/icons/default-icons/armor.svg",
    "name": "Harmonic Hauberk",
    "type": "armor"
}
