{
    "_id": "iPEuJ3rnGsrje66q",
    "data": {
        "attributes": {
            "ac": {
                "value": 20
            },
            "hardness": 8,
            "hasHealth": true,
            "hp": {
                "details": "",
                "max": 44,
                "temp": 0,
                "tempmax": 0,
                "value": 44
            },
            "stealth": {
                "details": "(trained)",
                "value": 12
            }
        },
        "creatureType": "",
        "details": {
            "description": "Compartments in the ceiling are rigged to drop a freezing alchemical liquid into the entire room if the door is opened without using the key.",
            "disable": "Thievery DC 20 (trained) on the door allows it to be opened without springing the trap.",
            "isComplex": false,
            "level": {
                "value": 4
            },
            "reset": "",
            "routine": ""
        },
        "saves": {
            "fortitude": {
                "saveDetail": "",
                "value": 11
            },
            "reflex": {
                "saveDetail": "",
                "value": 7
            },
            "will": {
                "saveDetail": "",
                "value": 0
            }
        },
        "source": {
            "value": "Pathfinder Adventure: The Fall of Plaguestone"
        },
        "statusEffects": [],
        "traits": {
            "ci": [],
            "di": {
                "custom": "",
                "selected": {},
                "value": [
                    "critical-hits",
                    "object-immunities",
                    "precision"
                ]
            },
            "dr": [],
            "dv": [],
            "rarity": {
                "value": "common"
            },
            "size": {
                "value": "med"
            },
            "traits": {
                "custom": "",
                "value": [
                    "mechanical"
                ]
            }
        }
    },
    "effects": [],
    "flags": {},
    "img": "systems/pf2e/icons/default-icons/hazard.svg",
    "items": [
        {
            "_id": "ctDUZ8gUdfvuUQoM",
            "data": {
                "actionCategory": {
                    "value": ""
                },
                "actionType": {
                    "value": "reaction"
                },
                "actions": {
                    "value": null
                },
                "description": {
                    "value": "<p data-visibility=\"gm\"><strong>Trigger</strong> The door is attacked or opened without using the key.</p>\n<p><strong>Effect</strong> A freezing alchemical slurry is dumped into the room, dealing [[/r {4d6}[cold]]]{4d6 cold damage} to everyone in the area (<span data-pf2-check=\"reflex\" data-pf2-dc=\"20\" data-pf2-traits=\"damaging-effect\" data-pf2-label=\"Ice Fall DC\" data-pf2-show-dc=\"gm\">basic Reflex</span> save).</p>"
                },
                "requirements": {
                    "value": ""
                },
                "rules": [],
                "slug": null,
                "source": {
                    "value": ""
                },
                "traits": {
                    "custom": "",
                    "rarity": {
                        "value": "common"
                    },
                    "value": []
                },
                "trigger": {
                    "value": ""
                },
                "weapon": {
                    "value": ""
                }
            },
            "effects": [],
            "flags": {},
            "img": "systems/pf2e/icons/actions/Reaction.webp",
            "name": "Ice Fall",
            "sort": 100000,
            "type": "action"
        }
    ],
    "name": "Ice Fall Trap",
    "token": {
        "disposition": 0,
        "height": 1,
        "img": "systems/pf2e/icons/default-icons/hazard.svg",
        "name": "Ice Fall Trap",
        "width": 1
    },
    "type": "hazard"
}
