{
    "_id": "9BEHjBWRs0st7IVv",
    "data": {
        "attributes": {
            "ac": {
                "value": 0
            },
            "hardness": 0,
            "hasHealth": true,
            "hp": {
                "details": "",
                "max": 0,
                "temp": 0,
                "value": 0
            },
            "stealth": {
                "details": "<p>DC 35 (expert) to realize the illusory images conceal a magical trap (noticing the images has a DC of 0)</p>",
                "value": 25
            }
        },
        "creatureType": "",
        "details": {
            "description": "<p>Psychically enhanced illusions flood the minds of creatures in the 40-foot-long, 15-foot-wide hallway (the white dotted box on the map) with memories of their past failures.</p>",
            "disable": "<p>DC 32 Occultism (master) or dispel magic (5th level; counteract DC 26) to weaken the images; three successes are required to disable the trap</p>",
            "isComplex": false,
            "level": {
                "value": 12
            },
            "reset": "<p>The trap resets immediately and can affect the same creature multiple times on the creature's turn.</p>",
            "routine": ""
        },
        "saves": {
            "fortitude": {
                "saveDetail": "",
                "value": 0
            },
            "reflex": {
                "saveDetail": "",
                "value": 0
            },
            "will": {
                "saveDetail": "",
                "value": 0
            }
        },
        "source": {
            "value": "Pathfinder #165: Eyes of Empty Death"
        },
        "statusEffects": [],
        "traits": {
            "ci": [],
            "di": {
                "custom": "",
                "selected": {},
                "value": []
            },
            "dr": [],
            "dv": [],
            "rarity": {
                "value": "common"
            },
            "size": {
                "value": "med"
            },
            "traits": {
                "custom": "",
                "value": [
                    "magical",
                    "trap"
                ]
            }
        }
    },
    "effects": [],
    "flags": {},
    "img": "systems/pf2e/icons/default-icons/hazard.svg",
    "items": [
        {
            "_id": "EyBIlDKJTvz0g8ka",
            "data": {
                "actionCategory": {
                    "value": "offensive"
                },
                "actionType": {
                    "value": "free"
                },
                "actions": {
                    "value": null
                },
                "description": {
                    "value": "<p data-visibility=\"gm\"><strong>Trigger</strong> A creature ends a move action within the trap's area;</p>\n<p><strong>Effect</strong> The triggering creature takes [[/r {2d10+10}[mental]]]{2d10+10 mental damage} (<span data-pf2-check=\"will\" data-pf2-dc=\"32\" data-pf2-traits=\"curse,emotion,enchantment,mental,damaging-effect\" data-pf2-label=\"Echoes of Defeat DC\" data-pf2-show-dc=\"gm\">basic Will</span> save) as it recalls its past failures. A creature that takes damage hears a soft whisper offering, “Let me take something from you and I can stop the pain.” A creature who agrees loses access to a random skill feat that isn't a prerequisite for another feat, and the creature doesn't take further damage from Echoes of Defeat. This effect lasts for 1 week and can be ended by effects that remove curses.</p>"
                },
                "requirements": {
                    "value": ""
                },
                "rules": [],
                "slug": null,
                "source": {
                    "value": ""
                },
                "traits": {
                    "custom": "",
                    "rarity": {
                        "value": "common"
                    },
                    "value": [
                        "curse",
                        "emotion",
                        "enchantment",
                        "mental"
                    ]
                },
                "trigger": {
                    "value": ""
                },
                "weapon": {
                    "value": ""
                }
            },
            "effects": [],
            "flags": {},
            "img": "systems/pf2e/icons/actions/FreeAction.webp",
            "name": "Echoes of Defeat",
            "sort": 100000,
            "type": "action"
        }
    ],
    "name": "Images of Failure",
    "token": {
        "disposition": 0,
        "height": 1,
        "img": "systems/pf2e/icons/default-icons/hazard.svg",
        "name": "Images of Failure",
        "width": 1
    },
    "type": "hazard"
}
