{
    "_id": "9a72g0wO4E9F46UX",
    "data": {
        "attributes": {
            "ac": {
                "value": 15
            },
            "hardness": 1,
            "hasHealth": true,
            "hp": {
                "details": "",
                "max": 1,
                "temp": 0,
                "value": 1
            },
            "stealth": {
                "details": "<p>(trained)</p>",
                "value": 7
            }
        },
        "creatureType": "",
        "details": {
            "description": "<p>One of the potions has decayed, putting it under immense pressure. Its contents have become poisonous. When handled improperly, the bottle bursts, sending glass shards flying everywhere.</p>",
            "disable": "<p><span data-pf2-check=\"thievery\" data-pf2-traits=\"mechanical,trap\" data-pf2-label=\"Pressurized Bottle DC\" data-pf2-dc=\"17\" data-pf2-show-dc=\"gm\">Thievery</span> (trained) to carefully place the bottle under a bucket or bowl.</p>",
            "isComplex": false,
            "level": {
                "value": 1
            },
            "reset": "",
            "routine": ""
        },
        "saves": {
            "fortitude": {
                "saveDetail": "",
                "value": 8
            },
            "reflex": {
                "saveDetail": "",
                "value": 4
            },
            "will": {
                "saveDetail": "",
                "value": 0
            }
        },
        "source": {
            "value": "Pathfinder Society Scenario 2-03: Catastrophe's Spark"
        },
        "statusEffects": [],
        "traits": {
            "ci": [],
            "di": {
                "custom": "",
                "selected": {},
                "value": [
                    "object-immunities",
                    "precision"
                ]
            },
            "dr": [],
            "dv": [],
            "rarity": {
                "value": "common"
            },
            "size": {
                "value": "med"
            },
            "traits": {
                "custom": "",
                "value": [
                    "mechanical",
                    "trap"
                ]
            }
        }
    },
    "effects": [],
    "flags": {},
    "img": "systems/pf2e/icons/default-icons/hazard.svg",
    "items": [
        {
            "_id": "OHsn2hKG1JUi2h5F",
            "data": {
                "actionCategory": {
                    "value": "offensive"
                },
                "actionType": {
                    "value": "reaction"
                },
                "actions": {
                    "value": null
                },
                "description": {
                    "value": "<p data-visibility=\"gm\"><strong>Trigger</strong> A creature tries to pick up or move the potion;</p>\n<p><strong>Effect</strong> The bottle shatters into pieces that fill a 5-foot burst. The burst deals [[/r {1}[piercing]]]{1 piercing damage} (<span data-pf2-check=\"reflex\" data-pf2-traits=\"attack,damaging-effect\" data-pf2-label=\"Brittle Shatter DC\" data-pf2-dc=\"19\" data-pf2-show-dc=\"gm\">basic Reflex</span> save).<span data-visibility=\"gm\"> A creature who takes any damage is exposed to fermented potion.</span></p>"
                },
                "requirements": {
                    "value": ""
                },
                "rules": [],
                "slug": null,
                "source": {
                    "value": ""
                },
                "traits": {
                    "custom": "",
                    "rarity": {
                        "value": "common"
                    },
                    "value": [
                        "attack"
                    ]
                },
                "trigger": {
                    "value": ""
                },
                "weapon": {
                    "value": ""
                }
            },
            "effects": [],
            "flags": {},
            "img": "systems/pf2e/icons/actions/Reaction.webp",
            "name": "Brittle Shatter",
            "sort": 0,
            "type": "action"
        },
        {
            "_id": "xcLmLORuD1ZYYkm4",
            "data": {
                "actionCategory": {
                    "value": "offensive"
                },
                "actionType": {
                    "value": "passive"
                },
                "actions": {
                    "value": null
                },
                "description": {
                    "value": "<p><strong>Saving Throw</strong> <span data-pf2-check=\"fortitude\" data-pf2-traits=\"poison\" data-pf2-label=\"Fermented Poison DC\" data-pf2-dc=\"19\" data-pf2-show-dc=\"gm\"> Fortitude</span>;</p>\n<div data-visibility=\"gm\">\n<p><strong>Maximum Duration</strong> 4 hours;</p>\n<p><strong>Stage 1</strong> [[/r {1d4}[poison]]]{1d4 poison damage} and @Compendium[pf2e.conditionitems.Clumsy]{Clumsy 1} (1 hour);</p>\n<p><strong>Stage 2</strong> [[/r {1d6}[poison]]]{1d6 poison damage} and @Compendium[pf2e.conditionitems.Clumsy]{Clumsy 2} (1 hour);</p>\n<p><strong>Stage 3</strong> [[/r {2d6}[poison]]]{2d6 poison damage} and clumsy 2 (1 hour)</p>\n</div>"
                },
                "requirements": {
                    "value": ""
                },
                "rules": [],
                "slug": null,
                "source": {
                    "value": ""
                },
                "traits": {
                    "custom": "",
                    "rarity": {
                        "value": "common"
                    },
                    "value": [
                        "poison"
                    ]
                },
                "trigger": {
                    "value": ""
                },
                "weapon": {
                    "value": ""
                }
            },
            "effects": [],
            "flags": {},
            "img": "systems/pf2e/icons/actions/Passive.webp",
            "name": "Fermented Poison",
            "sort": 0,
            "type": "action"
        }
    ],
    "name": "Pressurized Bottle (1-2)",
    "token": {
        "disposition": 0,
        "height": 1,
        "img": "systems/pf2e/icons/default-icons/hazard.svg",
        "name": "Pressurized Bottle",
        "width": 1
    },
    "type": "hazard"
}
