{
    "_id": "kCaEwjZyHXy7cJre",
    "data": {
        "abilities": {
            "cha": {
                "mod": 0
            },
            "con": {
                "mod": 3
            },
            "dex": {
                "mod": 4
            },
            "int": {
                "mod": -5
            },
            "str": {
                "mod": 1
            },
            "wis": {
                "mod": 2
            }
        },
        "attributes": {
            "ac": {
                "details": "",
                "value": 18
            },
            "allSaves": {
                "value": null
            },
            "hp": {
                "details": "",
                "max": 30,
                "temp": 0,
                "value": 30
            },
            "initiative": {
                "ability": "perception"
            },
            "perception": {
                "value": 9
            },
            "shield": {
                "ac": 2,
                "brokenThreshold": 0,
                "hardness": 0,
                "max": 0,
                "value": 0
            },
            "speed": {
                "otherSpeeds": [
                    {
                        "exceptions": "",
                        "label": "Swim",
                        "type": "swim",
                        "value": "25"
                    }
                ],
                "value": ""
            }
        },
        "details": {
            "alignment": {
                "value": "N"
            },
            "blurb": "",
            "creatureType": "",
            "level": {
                "value": 3
            },
            "privateNotes": "",
            "publicNotes": "<p>Often overlooked as little more than water-dwelling pests, trilobites are a varied species of arthropods found throughout the seas and oceans of Golarion. So ancient and widespread are these critters that trilobite fossils are as commonly found as living specimens.&nbsp;&nbsp;</p>\n<hr />\n<p>Trilobites typically live in close proximity to others of their kind. On rare occasions, particularly when the most common prey around is larger than what a single trilobite can take down, they form swarms that seem to actively cooperate with each other. These swarms latch onto their prey, and the combined efforts of so many trilobites at once make escape difficult.</p>",
            "source": {
                "value": "Pathfinder Bestiary 3"
            }
        },
        "resources": {},
        "saves": {
            "fortitude": {
                "saveDetail": "",
                "value": 10
            },
            "reflex": {
                "saveDetail": "",
                "value": 9
            },
            "will": {
                "saveDetail": "",
                "value": 7
            }
        },
        "traits": {
            "attitude": {
                "value": "hostile"
            },
            "ci": [],
            "di": {
                "custom": "",
                "value": [
                    "precision",
                    "swarm-mind"
                ]
            },
            "dr": [
                {
                    "exceptions": "",
                    "label": "Bludgeoning",
                    "type": "bludgeoning",
                    "value": "3"
                },
                {
                    "exceptions": "",
                    "label": "Piercing",
                    "type": "piercing",
                    "value": "3"
                },
                {
                    "exceptions": "",
                    "label": "Slashing",
                    "type": "slashing",
                    "value": "5"
                }
            ],
            "dv": [
                {
                    "exceptions": "",
                    "label": "Area Damage",
                    "type": "area-damage",
                    "value": "5"
                },
                {
                    "exceptions": "",
                    "label": "Splash Damage",
                    "type": "splash-damage",
                    "value": "5"
                }
            ],
            "languages": {
                "custom": "",
                "selected": [],
                "value": []
            },
            "rarity": {
                "value": "common"
            },
            "senses": {
                "value": "darkvision, wavesense (imprecise) 60 feet"
            },
            "size": {
                "value": "lg"
            },
            "traits": {
                "custom": "",
                "value": [
                    "animal",
                    "aquatic",
                    "swarm"
                ]
            }
        }
    },
    "effects": [],
    "flags": {},
    "img": "systems/pf2e/icons/default-icons/npc.svg",
    "items": [
        {
            "_id": "IsKgw1GkBDUH68wl",
            "data": {
                "actionCategory": {
                    "value": "interaction"
                },
                "actionType": {
                    "value": "passive"
                },
                "actions": {
                    "value": null
                },
                "description": {
                    "value": "<p>@Localize[PF2E.NPC.Abilities.Glossary.Wavesense]</p>"
                },
                "requirements": {
                    "value": ""
                },
                "rules": [],
                "slug": "wavesense",
                "source": {
                    "value": ""
                },
                "traits": {
                    "custom": "",
                    "rarity": {
                        "value": "common"
                    },
                    "value": []
                },
                "trigger": {
                    "value": ""
                },
                "weapon": {
                    "value": ""
                }
            },
            "effects": [],
            "flags": {
                "core": {
                    "sourceId": "Compendium.pf2e.bestiary-ability-glossary-srd.VdSMQ6yRZ3YXNXHL"
                }
            },
            "img": "systems/pf2e/icons/default-icons/mystery-man.svg",
            "name": "Wavesense (Imprecise) 60 feet",
            "sort": 100000,
            "type": "action"
        },
        {
            "_id": "xDnUeGZfUafSNkYD",
            "data": {
                "actionCategory": {
                    "value": "interaction"
                },
                "actionType": {
                    "value": "passive"
                },
                "actions": {
                    "value": null
                },
                "description": {
                    "value": "<p>@Localize[PF2E.NPC.Abilities.Glossary.Darkvision]</p>"
                },
                "requirements": {
                    "value": ""
                },
                "rules": [],
                "slug": "darkvision",
                "source": {
                    "value": ""
                },
                "traits": {
                    "custom": "",
                    "rarity": {
                        "value": "common"
                    },
                    "value": []
                },
                "trigger": {
                    "value": ""
                },
                "weapon": {
                    "value": ""
                }
            },
            "effects": [],
            "flags": {
                "core": {
                    "sourceId": "Compendium.pf2e.bestiary-ability-glossary-srd.qCCLZhnp2HhP3Ex6"
                }
            },
            "img": "systems/pf2e/icons/default-icons/action.svg",
            "name": "Darkvision",
            "sort": 200000,
            "type": "action"
        },
        {
            "_id": "eLKeINPUnuoZeD9D",
            "data": {
                "actionCategory": {
                    "value": "defensive"
                },
                "actionType": {
                    "value": "passive"
                },
                "actions": {
                    "value": null
                },
                "description": {
                    "value": "<p>@Localize[PF2E.NPC.Abilities.Glossary.SwarmMind]</p>"
                },
                "requirements": {
                    "value": ""
                },
                "rules": [],
                "slug": "swarm-mind",
                "source": {
                    "value": ""
                },
                "traits": {
                    "custom": "",
                    "rarity": {
                        "value": "common"
                    },
                    "value": []
                },
                "trigger": {
                    "value": ""
                },
                "weapon": {
                    "value": ""
                }
            },
            "effects": [],
            "flags": {
                "core": {
                    "sourceId": "Compendium.pf2e.bestiary-ability-glossary-srd.baA0nSMhQyFyJIia"
                }
            },
            "img": "systems/pf2e/icons/default-icons/action.svg",
            "name": "Swarm Mind",
            "sort": 300000,
            "type": "action"
        },
        {
            "_id": "R0vde3bCSBW2a8br",
            "data": {
                "actionCategory": {
                    "value": "offensive"
                },
                "actionType": {
                    "value": "action"
                },
                "actions": {
                    "value": 1
                },
                "description": {
                    "value": "<p>The trilobites in the swarm latch onto creatures and gnaw at them. Each enemy in the swarm's space takes [[/r {2d6}[slashing]]]{2d6 slashing damage} (<span data-pf2-check=\"reflex\" data-pf2-dc=\"18\" data-pf2-traits=\"damaging-effect\" data-pf2-label=\"Clinging Bites DC\" data-pf2-show-dc=\"gm\">basic Reflex</span> save).</p>"
                },
                "requirements": {
                    "value": ""
                },
                "rules": [],
                "slug": null,
                "source": {
                    "value": ""
                },
                "traits": {
                    "custom": "",
                    "rarity": {
                        "value": "common"
                    },
                    "value": []
                },
                "trigger": {
                    "value": ""
                },
                "weapon": {
                    "value": ""
                }
            },
            "effects": [],
            "flags": {},
            "img": "systems/pf2e/icons/actions/OneAction.webp",
            "name": "Clinging Bites",
            "sort": 400000,
            "type": "action"
        },
        {
            "_id": "9e3qjlOXchlCJyEq",
            "data": {
                "description": {
                    "value": ""
                },
                "item": {
                    "value": 0
                },
                "mod": {
                    "value": 8
                },
                "proficient": {
                    "value": 0
                },
                "rules": [],
                "slug": null,
                "source": {
                    "value": ""
                },
                "traits": {
                    "custom": "",
                    "rarity": {
                        "value": "common"
                    },
                    "value": []
                }
            },
            "effects": [],
            "flags": {},
            "img": "systems/pf2e/icons/default-icons/lore.svg",
            "name": "Athletics",
            "sort": 500000,
            "type": "lore"
        },
        {
            "_id": "rDKiOjO1zFibeboH",
            "data": {
                "description": {
                    "value": ""
                },
                "item": {
                    "value": 0
                },
                "mod": {
                    "value": 9
                },
                "proficient": {
                    "value": 0
                },
                "rules": [],
                "slug": null,
                "source": {
                    "value": ""
                },
                "traits": {
                    "custom": "",
                    "rarity": {
                        "value": "common"
                    },
                    "value": []
                }
            },
            "effects": [],
            "flags": {},
            "img": "systems/pf2e/icons/default-icons/lore.svg",
            "name": "Stealth",
            "sort": 600000,
            "type": "lore"
        },
        {
            "_id": "EmTF05ZvieHFAP2M",
            "data": {
                "description": {
                    "value": ""
                },
                "item": {
                    "value": 0
                },
                "mod": {
                    "value": 7
                },
                "proficient": {
                    "value": 0
                },
                "rules": [],
                "slug": null,
                "source": {
                    "value": ""
                },
                "traits": {
                    "custom": "",
                    "rarity": {
                        "value": "common"
                    },
                    "value": []
                }
            },
            "effects": [],
            "flags": {},
            "img": "systems/pf2e/icons/default-icons/lore.svg",
            "name": "Survival",
            "sort": 700000,
            "type": "lore"
        }
    ],
    "name": "Trilobite Swarm",
    "token": {
        "disposition": -1,
        "height": 2,
        "img": "systems/pf2e/icons/default-icons/npc.svg",
        "name": "Trilobite Swarm",
        "width": 2
    },
    "type": "npc"
}
