{
    "_id": "a7A4xY3NeWI2Ya4Z",
    "data": {
        "actionCategory": {
            "value": "defensive"
        },
        "actionType": {
            "value": "passive"
        },
        "actions": {
            "value": null
        },
        "description": {
            "value": "<p>When a lich is destroyed, its soul immediately transfers to its <em>@Compendium[pf2e.equipment-srd.Lich Soul Cage]{Soul Cage}</em>. A lich can be permanently destroyed only if its <em>soul cage</em> is found and destroyed.</p>"
        },
        "requirements": {
            "value": ""
        },
        "rules": [],
        "source": {
            "value": "Pathfinder Bestiary"
        },
        "traits": {
            "custom": "",
            "rarity": {
                "value": "common"
            },
            "value": [
                "arcane",
                "necromancy"
            ]
        },
        "trigger": {
            "value": ""
        },
        "weapon": {
            "value": ""
        }
    },
    "effects": [],
    "flags": {},
    "img": "systems/pf2e/icons/actions/Passive.webp",
    "name": "(Lich) Rejuvenation",
    "type": "action"
}
