{
    "_id": "VLCECgjkL5bNOxpx",
    "data": {
        "actionCategory": {
            "value": "offensive"
        },
        "actionType": {
            "value": "free"
        },
        "actions": {
            "value": null
        },
        "description": {
            "value": "<p data-visibility=\"gm\"><strong>Trigger</strong> A living creature within 30 feet of the ravener dies;</p>\n<p><strong>Effect</strong> The ravener tears the creature's soul from its body with their maw and gulps it down. The dying creature must attempt a <span data-pf2-check=\"fortitude\" data-pf2-dc=\"\" data-pf2-traits=\"death,divine,necromancy\" data-pf2-label=\"Consume Soul DC\" data-pf2-show-dc=\"gm\">Fortitude</span> save with the same DC as the ravener's Breath Weapon.</p>\n<div data-visibility=\"gm\"><hr />\n<p><strong>Critical Success</strong> The creature is unaffected.</p>\n<p><strong>Success</strong> The ravener tears off a small chunk of the creature's soul. If the victim is restored to life, they are @Compendium[pf2e.conditionitems.Drained]{Drained 1} in addition to any other side effects of returning to life. The ravener adds a number of Hit Points to their soul ward equal to half the creature's level.</p>\n<p><strong>Failure</strong> As success, but the creature's soul is ravaged. The creature is @Compendium[pf2e.conditionitems.Drained]{Drained 3} and the ravener adds a number of Hit Points to their soul ward equal to the creature's level.</p>\n<p><strong>Critical Failure</strong> As failure, but the ravener devours the entire soul. The victim can't be restored to life as long as the ravener exists except via a 10th-level effect such as <em>@Compendium[pf2e.spells-srd.Miracle]{Miracle}</em> or <em>@Compendium[pf2e.spells-srd.Wish]{Wish}</em>, and the ravener adds a number of Hit Points to their soul ward equal to twice the creature's level.</p>\n</div>"
        },
        "requirements": {
            "value": ""
        },
        "rules": [],
        "source": {
            "value": "Pathfinder Bestiary 2"
        },
        "traits": {
            "custom": "",
            "rarity": {
                "value": "common"
            },
            "value": [
                "death",
                "divine",
                "necromancy"
            ]
        },
        "trigger": {
            "value": ""
        }
    },
    "effects": [],
    "flags": {},
    "img": "systems/pf2e/icons/actions/FreeAction.webp",
    "name": "(Ravener) Consume Soul",
    "type": "action"
}
