{
    "_id": "sAyR4uJbsWukZFZf",
    "data": {
        "actionCategory": {
            "value": "defensive"
        },
        "actionType": {
            "value": "free"
        },
        "actions": {
            "value": null
        },
        "description": {
            "value": "<p data-visibility=\"gm\"><strong>Trigger</strong> The vampire is reduced to 0 HP.</p>\n<p><strong>Effect</strong> The vampire uses Turn to Mist. It can take move actions to move toward its coffin even though it's at 0 HP. While at 0 HP in this form, the vampire is unaffected by further damage.</p>\n<p>It automatically returns to its corporeal form, unconscious, if it reaches its coffin or after 2 hours, whichever comes first.</p>"
        },
        "requirements": {
            "value": ""
        },
        "rules": [],
        "source": {
            "value": "Pathfinder Bestiary"
        },
        "traits": {
            "custom": "",
            "rarity": {
                "value": "common"
            },
            "value": []
        },
        "trigger": {
            "value": ""
        },
        "weapon": {
            "value": ""
        }
    },
    "effects": [],
    "flags": {},
    "img": "systems/pf2e/icons/actions/FreeAction.webp",
    "name": "(Vampire, True) Mist Escape",
    "type": "action"
}
