{
    "_id": "VzKVJlX2ocv1ezzp",
    "data": {
        "actionCategory": {
            "value": "offensive"
        },
        "actionType": {
            "value": "action"
        },
        "actions": {
            "value": 2
        },
        "description": {
            "value": "<p>The visitant exhales sharply, releasing pungent fumes from its lungs in a @Template[type:cone|distance:15]{15-foot cone}.</p>\n<p>Each creature in the area must succeed at a <span data-pf2-check=\"fortitude\" data-pf2-dc=\"\" data-pf2-label=\"Noxious Breath DC\" data-pf2-show-dc=\"gm\">Fortitude</span> save or become @Compendium[pf2e.conditionitems.Sickened]{Sickened 1} (@Compendium[pf2e.conditionitems.Sickened]{Sickened 2} on a critical failure).</p>"
        },
        "requirements": {
            "value": ""
        },
        "rules": [],
        "source": {
            "value": "Pathfinder #152: Legacy of the Lost God"
        },
        "traits": {
            "custom": "",
            "rarity": {
                "value": "common"
            },
            "value": []
        },
        "trigger": {
            "value": ""
        }
    },
    "effects": [],
    "flags": {},
    "img": "systems/pf2e/icons/actions/TwoActions.webp",
    "name": "(Visitant) Noxious Breath",
    "type": "action"
}
