{
    "_id": "VKiNcykRfwWGY21s",
    "data": {
        "abilities": {
            "cha": {
                "value": 10
            },
            "con": {
                "value": 13
            },
            "dex": {
                "value": 17
            },
            "int": {
                "value": 2
            },
            "str": {
                "value": 15
            },
            "wis": {
                "value": 15
            }
        },
        "attributes": {
            "bonusEncumbranceBulk": 0,
            "bonusLimitBulk": 0,
            "classDC": {
                "rank": 0
            },
            "flatbonushp": 8,
            "flatbonussp": 0,
            "hp": {
                "details": "",
                "temp": 0,
                "value": 39
            },
            "initiative": {
                "ability": ""
            },
            "levelbonushp": 0,
            "levelbonussp": 0,
            "perception": {
                "rank": 2
            },
            "resolve": {
                "value": 0
            },
            "shield": {
                "ac": 0,
                "brokenThreshold": 0,
                "hardness": 0,
                "hp": {
                    "value": 0
                },
                "max": 0,
                "value": 0
            },
            "sp": {
                "details": "",
                "max": 0,
                "min": 0,
                "value": 0
            },
            "speed": {
                "otherSpeeds": [],
                "value": "25"
            }
        },
        "crafting": {
            "formulas": []
        },
        "details": {
            "age": {
                "value": ""
            },
            "alignment": {
                "value": "N"
            },
            "ancestry": {
                "value": ""
            },
            "background": {
                "value": ""
            },
            "biography": {
                "allies": "",
                "appearance": "",
                "attitude": "",
                "backstory": "",
                "beliefs": "",
                "birthPlace": "",
                "campaignNotes": "",
                "catchphrases": "",
                "dislikes": "",
                "enemies": "",
                "likes": "",
                "organaizations": ""
            },
            "class": {
                "value": ""
            },
            "deity": {
                "image": "systems/pf2e/assets/sheet/deity.webp",
                "value": ""
            },
            "ethnicity": {
                "value": ""
            },
            "gender": {
                "value": ""
            },
            "height": {
                "value": ""
            },
            "heritage": {
                "value": ""
            },
            "keyability": {
                "value": "str"
            },
            "level": {
                "min": 1,
                "value": 5
            },
            "nationality": {
                "value": ""
            },
            "weight": {
                "value": ""
            },
            "xp": {
                "max": 1000,
                "min": 0,
                "pct": 0,
                "value": 0
            }
        },
        "martial": {},
        "pfs": {
            "characterNumber": "",
            "currentFaction": "EA",
            "fame": 0,
            "levelBump": false,
            "playerNumber": "",
            "reputation": {
                "EA": 0,
                "GA": 0,
                "HH": 0,
                "RO": 0,
                "VS": 0,
                "VW": 0
            },
            "school": "none"
        },
        "resources": {
            "heroPoints": {
                "value": 0
            }
        },
        "saves": {
            "fortitude": {
                "rank": 2,
                "value": 0
            },
            "reflex": {
                "rank": 2,
                "value": 0
            },
            "will": {
                "rank": 2,
                "value": 0
            }
        },
        "skills": {
            "acr": {
                "rank": 1
            },
            "arc": {
                "rank": 0
            },
            "ath": {
                "rank": 1
            },
            "cra": {
                "rank": 0
            },
            "dec": {
                "rank": 0
            },
            "dip": {
                "rank": 0
            },
            "itm": {
                "rank": 1
            },
            "med": {
                "rank": 0
            },
            "nat": {
                "rank": 0
            },
            "occ": {
                "rank": 0
            },
            "prf": {
                "rank": 0
            },
            "rel": {
                "rank": 0
            },
            "soc": {
                "rank": 0
            },
            "ste": {
                "rank": 2
            },
            "sur": {
                "rank": 0
            },
            "thi": {
                "rank": 0
            }
        },
        "traits": {
            "ci": [],
            "di": {
                "custom": "",
                "value": []
            },
            "dr": [],
            "dv": [],
            "languages": {
                "custom": "",
                "selected": [],
                "value": []
            },
            "senses": [
                {
                    "label": "Low-Light Vision",
                    "type": "lowLightVision",
                    "value": ""
                },
                {
                    "label": "Scent",
                    "type": "scent",
                    "value": "30"
                }
            ],
            "size": {
                "value": "med"
            },
            "traits": {
                "custom": "",
                "value": [
                    "animal"
                ]
            }
        }
    },
    "effects": [],
    "flags": {},
    "img": "systems/pf2e/icons/iconics/DroogamiFull.webp",
    "items": [
        {
            "_id": "r2iHkLpfySH5eFDR",
            "data": {
                "additionalLanguages": {
                    "count": 0,
                    "custom": "",
                    "value": []
                },
                "boosts": {
                    "0": {
                        "value": []
                    },
                    "1": {
                        "value": []
                    },
                    "2": {
                        "value": [
                            "str",
                            "dex",
                            "con",
                            "int",
                            "wis",
                            "cha"
                        ]
                    }
                },
                "description": {
                    "value": ""
                },
                "flaws": {
                    "0": {
                        "value": []
                    }
                },
                "hp": 6,
                "items": {},
                "languages": {
                    "custom": "",
                    "value": [
                        "common"
                    ]
                },
                "reach": 5,
                "rules": [],
                "size": "med",
                "slug": "empty-ancestry",
                "source": {
                    "value": ""
                },
                "speed": 35,
                "traits": {
                    "custom": "",
                    "rarity": {
                        "value": "common"
                    },
                    "value": []
                },
                "vision": "normal"
            },
            "effects": [],
            "flags": {
                "core": {
                    "sourceId": "Compendium.pf2e.ancestries.mDtlRBBUWqUzYSHs"
                }
            },
            "img": "systems/pf2e/icons/default-icons/alternatives/ancestries/human.svg",
            "name": "Cat (Snow Leopard)",
            "sort": 100000,
            "type": "ancestry"
        },
        {
            "_id": "hsmTFitCcBIJ1ex6",
            "data": {
                "abilityBoostLevels": {
                    "value": [
                        5,
                        10,
                        15,
                        20
                    ]
                },
                "ancestryFeatLevels": {
                    "value": [
                        1,
                        5,
                        9,
                        13,
                        17
                    ]
                },
                "attacks": {
                    "advanced": 0,
                    "martial": 0,
                    "other": {
                        "name": "",
                        "rank": 0
                    },
                    "simple": 0,
                    "unarmed": 1
                },
                "classDC": 0,
                "classFeatLevels": {
                    "value": [
                        1,
                        2,
                        4,
                        6,
                        8,
                        10,
                        12,
                        14,
                        16,
                        18,
                        20
                    ]
                },
                "defenses": {
                    "heavy": 0,
                    "light": 0,
                    "medium": 0,
                    "unarmored": 0
                },
                "description": {
                    "value": ""
                },
                "generalFeatLevels": {
                    "value": [
                        3,
                        7,
                        11,
                        15,
                        19
                    ]
                },
                "hp": 4,
                "items": {},
                "keyAbility": {
                    "value": []
                },
                "perception": 1,
                "rules": [],
                "savingThrows": {
                    "fortitude": 1,
                    "reflex": 1,
                    "will": 1
                },
                "skillFeatLevels": {
                    "value": [
                        2,
                        4,
                        6,
                        8,
                        10,
                        12,
                        14,
                        16,
                        18,
                        20
                    ]
                },
                "skillIncreaseLevels": {
                    "value": [
                        3,
                        5,
                        7,
                        9,
                        11,
                        13,
                        15,
                        17,
                        19
                    ]
                },
                "slug": "empty-class",
                "source": {
                    "value": ""
                },
                "trainedSkills": {
                    "additional": 0,
                    "value": []
                },
                "traits": {
                    "custom": "",
                    "rarity": {
                        "value": "common"
                    },
                    "value": []
                }
            },
            "effects": [],
            "flags": {
                "core": {
                    "sourceId": "Compendium.pf2e.classes.84SZGVNLXhLKG6gL"
                },
                "pf2e": {
                    "insertedClassFeaturesLevel": 5
                }
            },
            "img": "systems/pf2e/icons/classes/empty-class.webp",
            "name": "Animal Companion",
            "sort": 200000,
            "type": "class"
        },
        {
            "_id": "KohQcvMXbwCtXz8Q",
            "data": {
                "actionCategory": {
                    "value": ""
                },
                "actionType": {
                    "value": "passive"
                },
                "actions": {
                    "value": null
                },
                "description": {
                    "value": "<p>Droogami has a jaws unarmed attack that deals [[/r {2d6+2}[piercing]]]{2d6+2 piercing damage}. His jaws are in the brawling group and have the finesse and unarmed traits.</p>"
                },
                "featType": {
                    "value": "heritage"
                },
                "level": {
                    "value": 1
                },
                "location": "",
                "prerequisites": {
                    "value": []
                },
                "rules": [
                    {
                        "category": "unarmed",
                        "damage": {
                            "base": {
                                "damageType": "piercing",
                                "dice": 2,
                                "die": "d6"
                            }
                        },
                        "group": "brawling",
                        "key": "Strike",
                        "label": "Jaws",
                        "range": null,
                        "traits": [
                            "finesse",
                            "unarmed"
                        ]
                    }
                ],
                "slug": "strongjaw-kobold",
                "source": {
                    "value": ""
                },
                "traits": {
                    "custom": "",
                    "rarity": {
                        "value": "common"
                    },
                    "value": []
                }
            },
            "effects": [],
            "flags": {
                "core": {
                    "sourceId": "Compendium.pf2e.ancestryfeatures.WaCn0mcivFv1omNK"
                }
            },
            "img": "systems/pf2e/icons/features/ancestry/strongjaw-kobold.webp",
            "name": "Cat Jaws",
            "sort": 300000,
            "type": "feat"
        },
        {
            "_id": "e4dDVmC3HLrn2vC2",
            "data": {
                "actionCategory": {
                    "value": ""
                },
                "actionType": {
                    "value": "passive"
                },
                "actions": {
                    "value": null
                },
                "description": {
                    "value": "<p>Droogami's sharp claws offer an alternative to the fists other humanoids bring to a fight. He has a claw unarmed attack that deals [[/r 2d4+2]] slashing damage and has the agile and finesse traits.</p>"
                },
                "featType": {
                    "value": "ancestryfeature"
                },
                "level": {
                    "value": 1
                },
                "location": "",
                "prerequisites": {
                    "value": []
                },
                "rules": [
                    {
                        "category": "unarmed",
                        "damage": {
                            "base": {
                                "damageType": "slashing",
                                "dice": 2,
                                "die": "d4"
                            }
                        },
                        "group": "brawling",
                        "key": "Strike",
                        "label": "Claws",
                        "range": null,
                        "traits": [
                            "finesse",
                            "agile",
                            "unarmed"
                        ]
                    }
                ],
                "slug": "claws",
                "source": {
                    "value": ""
                },
                "traits": {
                    "custom": "",
                    "rarity": {
                        "value": "common"
                    },
                    "selected": {
                        "lizardfolk": "Lizardfolk"
                    },
                    "value": []
                }
            },
            "effects": [],
            "flags": {
                "core": {
                    "sourceId": "Compendium.pf2e.ancestryfeatures.NfkxFWUeG6g41e8w"
                }
            },
            "img": "systems/pf2e/icons/features/ancestry/claws.webp",
            "name": "Claws",
            "sort": 400000,
            "type": "feat"
        },
        {
            "_id": "PkdZxZehFkMgIKx9",
            "data": {
                "actionCategory": {
                    "value": ""
                },
                "actionType": {
                    "value": "passive"
                },
                "actions": {
                    "value": null
                },
                "description": {
                    "value": "<p>When your enemy can't properly defend itself, you take advantage to deal extra damage. If you Strike a creature that has the @Compendium[pf2e.conditionitems.Flat-Footed]{Flat-Footed} condition with an agile or finesse melee weapon, an agile or finesse unarmed attack, or a ranged weapon attack, you deal an extra 1d6 precision damage. For a ranged attack with a thrown melee weapon, that weapon must also be agile or finesse.</p>\n<p>As your rogue level increases, so does the number of damage dice for your sneak attack. Increase the number of dice by one at 5th, 11th, and 17th levels.</p>"
                },
                "featType": {
                    "value": "classfeature"
                },
                "level": {
                    "value": 1
                },
                "location": "",
                "prerequisites": {
                    "value": []
                },
                "rules": [
                    {
                        "damageType": "precision",
                        "diceNumber": 1,
                        "dieSize": "d4",
                        "key": "DamageDice",
                        "label": "Droogami Sneak Attack",
                        "predicate": {
                            "all": [
                                "target:flatFooted"
                            ]
                        },
                        "selector": "damage"
                    }
                ],
                "slug": "sneak-attack",
                "source": {
                    "value": ""
                },
                "traits": {
                    "custom": "",
                    "rarity": {
                        "value": "common"
                    },
                    "value": [
                        "rogue"
                    ]
                }
            },
            "effects": [],
            "flags": {
                "core": {
                    "sourceId": "Compendium.pf2e.classfeatures.j1JE61quDxdge4mg"
                }
            },
            "img": "systems/pf2e/icons/features/classes/sneak-attack.webp",
            "name": "Sneak Attack",
            "sort": 100001,
            "type": "feat"
        },
        {
            "_id": "xOvIPjiLN8GfiECh",
            "data": {
                "actionCategory": {
                    "value": ""
                },
                "actionType": {
                    "value": "action"
                },
                "actions": {
                    "value": null
                },
                "description": {
                    "value": "<p>Droogami throws your enemies off-balance when you create an opening. Until the start of your next turn, your Strikes that deal damage to a creature that Droogami threatens make the target @Compendium[pf2e.conditionitems.Flat-Footed]{Flat-Footed} until the end of your next turn.</p>"
                },
                "requirements": {
                    "value": ""
                },
                "rules": [],
                "slug": null,
                "source": {
                    "value": ""
                },
                "traits": {
                    "custom": "",
                    "rarity": {
                        "value": "common"
                    },
                    "value": []
                },
                "trigger": {
                    "value": ""
                },
                "weapon": {
                    "value": ""
                }
            },
            "effects": [],
            "flags": {},
            "img": "systems/pf2e/icons/actions/OneAction.webp",
            "name": "Support",
            "sort": 500000,
            "type": "action"
        }
    ],
    "name": "Droogami (Level 5)",
    "token": {
        "disposition": 1,
        "height": 1,
        "img": "systems/pf2e/icons/iconics/Droogami.webp",
        "name": "Droogami",
        "width": 1
    },
    "type": "character"
}
