{
    "_id": "ivko8YN075ThpNsb",
    "content": "<table class=\"pf2-table\">\n<thead>\n<tr>\n<th>\n<h3><strong>Name</strong></h3>\n</th>\n<th>\n<h3><strong>Crit Effect</strong></h3>\n</th>\n<th>\n<h3><strong>Type</strong></h3>\n</th>\n</tr>\n</thead>\n<tbody>\n<tr>\n<td>\n<h3>Clocked!</h3>\n</td>\n<td>\n<h3>Triple damage. The target is knocked prone.</h3>\n</td>\n<td>\n<h3>Bludgeoning</h3>\n</td>\n</tr>\n<tr>\n<td>\n<h3>Head Shot</h3>\n</td>\n<td>\n<h3>Triple damage. The target must succeed at a Fortitude save or die.</h3>\n</td>\n<td>\n<h3>Piercing</h3>\n</td>\n</tr>\n<tr>\n<td>\n<h3>From chops to Groin</h3>\n</td>\n<td>\n<h3>Triple damage. The target must succeed at a Fortitude save or die.</h3>\n</td>\n<td>\n<h3>Slashing</h3>\n</td>\n</tr>\n<tr>\n<td>\n<h3>Doomed!</h3>\n</td>\n<td>\n<h3>The target is slowed 1 for 1 round, and is also doomed 1.</h3>\n</td>\n<td>\n<h3>Bomb or Spell</h3>\n</td>\n</tr>\n</tbody>\n</table>\n<h3 style=\"text-align: left;\"> </h3>",
    "flags": {},
    "name": "Critical Hit Deck #32",
    "permission": {
        "default": 0
    }
}
