{
    "_id": "wemXkXGY7sl0tUQR",
    "content": "<table class=\"pf2-table\">\n<thead>\n<tr>\n<th>\n<h3><strong>Name</strong></h3>\n</th>\n<th>\n<h3><strong>Crit Effect</strong></h3>\n</th>\n<th>\n<h3><strong>Type</strong></h3>\n</th>\n</tr>\n</thead>\n<tbody>\n<tr>\n<td>\n<h3>Two for One</h3>\n</td>\n<td>Deal normal damage to one target adjacent to the original target.</td>\n<td>\n<h3>Bludgeoning</h3>\n</td>\n</tr>\n<tr>\n<td>Pinned Arm</td>\n<td>As the bow critical specialization effect, and the target can't use one of its arms until freed. If using a melee weapon, you must drop it to gain this effect.</td>\n<td>\n<h3>Piercing</h3>\n</td>\n</tr>\n<tr>\n<td>Cut Straps</td>\n<td>The target's armor check penalty doubles until the armor is Repaired (DC 15).</td>\n<td>\n<h3>Slashing</h3>\n</td>\n</tr>\n<tr>\n<td>Electrocuted</td>\n<td>If this is a electricity spell or bomb, the target takes double damage, and at the start of its next tu rn, it takes normal damage. Any other bomb or spell deals double damage.</td>\n<td>\n<h3>Bomb or Spell</h3>\n</td>\n</tr>\n</tbody>\n</table>\n<h3 style=\"text-align: left;\"> </h3>",
    "flags": {},
    "name": "Critical Hit Deck #16",
    "permission": {
        "default": 0
    }
}
