{
    "_id": "cx0juTYewwBmrYWv",
    "data": {
        "actionCategory": {
            "value": "offensive"
        },
        "actionType": {
            "value": "action"
        },
        "actions": {
            "value": 2
        },
        "description": {
            "value": "<p>Your eidolon rushes forward, using its momentum to increase the power of its attack. Your eidolon Strides twice and then Strikes. If the eidolon moved at least 20 feet away from its starting position and moved entirely in a straight line, it gains a +1 circumstance bonus to this attack roll.</p>"
        },
        "requirements": {
            "value": ""
        },
        "rules": [],
        "source": {
            "value": ""
        },
        "traits": {
            "custom": "",
            "rarity": {
                "value": "common"
            },
            "value": [
                "eidolon"
            ]
        },
        "trigger": {
            "value": ""
        },
        "weapon": {
            "value": ""
        }
    },
    "effects": [],
    "flags": {},
    "img": "systems/pf2e/icons/actions/TwoActions.webp",
    "name": "Beast's Charge",
    "type": "action"
}
