{
    "_id": "tNrBIYct9l1lrW1I",
    "data": {
        "actionCategory": {
            "value": "offensive"
        },
        "actionType": {
            "value": "action"
        },
        "actions": {
            "value": 2
        },
        "description": {
            "value": "<p>Your eidolon extends its roots underground to entangle and possibly damage all foes nearby. All enemies within your eidolon's reach take damage of the same type and amount as your eidolon's most damaging Strike, depending on their Reflex saves. Any ongoing effects of the save last until the enemy either Escapes or leaves your eidolon's reach.</p>\n<p>After using Field of Roots, your eidolon is @Compendium[pf2e.conditionitems.Immobilized]{Immobilized} until it takes a single action, which has the manipulate trait, to detach from the ground; this also ends any remaining effects on enemies from Field of Roots.</p>\n<hr />\n<p><strong>Critical Success</strong> The enemy is unaffected.</p>\n<p><strong>Success</strong> The enemy takes no damage, but takes a -10 foot circumstance penalty to its Speeds.</p>\n<p><strong>Failure</strong> The enemy takes half damage, takes a -10-foot circumstance penalty to its Speeds, and, at the end of each of its turns, takes half damage again.</p>\n<p><strong>Critical Failure</strong> The enemy is immobilized, takes full damage, and, at the end of each of its turns, takes full damage again.</p>"
        },
        "requirements": {
            "value": ""
        },
        "rules": [],
        "source": {
            "value": ""
        },
        "traits": {
            "custom": "",
            "rarity": {
                "value": "common"
            },
            "value": [
                "eidolon"
            ]
        },
        "trigger": {
            "value": ""
        },
        "weapon": {
            "value": ""
        }
    },
    "effects": [],
    "flags": {},
    "img": "systems/pf2e/icons/actions/TwoActions.webp",
    "name": "Field of Roots",
    "type": "action"
}
