{
    "_id": "3yoajuKjwHZ9ApUY",
    "data": {
        "actionCategory": {
            "value": ""
        },
        "actionType": {
            "value": "reaction"
        },
        "actions": {
            "value": null
        },
        "description": {
            "value": "<p><strong>Trigger</strong> You fall from or past an edge or handhold</p>\n<p><strong>Requirements</strong> Your hands are not tied behind your back or otherwise @Compendium[pf2e.conditionitems.Restrained]{Restrained}</p>\n<hr />\n<p>When you fall off or past an edge or other handhold, you can try to grab it, potentially stopping your fall. You must succeed at a Reflex save, usually at the Climb DC. If you grab the edge or handhold, you can then @Compendium[pf2e.actionspf2e.Climb]{Climb} up using Athletics.</p>\n<hr />\n<p><strong>Critical Success</strong> You grab the edge or handhold, whether or not you have a hand free, typically by using a suitable held item to catch yourself (catching a battle axe on a ledge, for example). You still take damage from the distance fallen so far, but you treat the fall as though it were 30 feet shorter.</p>\n<p><strong>Success</strong> If you have at least one hand free, you grab the edge or handhold, stopping your fall. You still take damage from the distance fallen so far, but you treat the fall as though it were 20 feet shorter. If you have no hands free, you continue to fall as if you had failed the check.</p>\n<p><strong>Critical Failure</strong> You continue to fall, and if you've fallen 20 feet or more before you use this reaction, you take 10 bludgeoning damage from the impact for every 20 feet fallen.</p>"
        },
        "requirements": {
            "value": ""
        },
        "rules": [],
        "source": {
            "value": "Pathfinder Core Rulebook"
        },
        "traits": {
            "custom": "",
            "rarity": {
                "value": "common"
            },
            "value": [
                "manipulate",
                "general"
            ]
        },
        "trigger": {
            "value": ""
        },
        "weapon": {
            "value": ""
        }
    },
    "effects": [],
    "flags": {},
    "img": "systems/pf2e/icons/actions/Reaction.webp",
    "name": "Grab an Edge",
    "type": "action"
}
