{
    "_id": "pTHMZLqWDJ3lkan9",
    "data": {
        "actionCategory": {
            "value": ""
        },
        "actionType": {
            "value": "reaction"
        },
        "actions": {
            "value": null
        },
        "description": {
            "value": "<p><strong>Trigger</strong> A creature attempts a flat check to target you because you're concealed or hidden due to fog, haze, mist, or smoke</p>\n<p><strong>Effect</strong> You shroud yourself in smoke, making it harder for your foe to hit you. If you're @Compendium[pf2e.conditionitems.Concealed]{Concealed}, the DC of the flat check increases from 5 to 7; if you're @Compendium[pf2e.conditionitems.Hidden]{Hidden}, it increases from 11 to 13.</p>"
        },
        "requirements": {
            "value": ""
        },
        "rules": [],
        "source": {
            "value": ""
        },
        "traits": {
            "custom": "",
            "rarity": {
                "value": "common"
            },
            "value": [
                "sylph"
            ]
        },
        "trigger": {
            "value": ""
        },
        "weapon": {
            "value": ""
        }
    },
    "effects": [],
    "flags": {},
    "img": "systems/pf2e/icons/actions/Reaction.webp",
    "name": "Smoke Blending",
    "type": "action"
}
