{
    "_id": "6OZfIjiPjWTIe7Pr",
    "data": {
        "actionCategory": {
            "value": "offensive"
        },
        "actionType": {
            "value": "action"
        },
        "actions": {
            "value": 3
        },
        "description": {
            "value": "<p><strong>Requirements</strong> You're wielding a loaded firearm or loaded crossbow.</p>\n<hr />\n<p>You go into a vicious spin, smashing your weapon into those nearby and increasing your momentum by firing. All creatures adjacent to you take 1d6 bludgeoning damage plus your Strength modifier; this increases to 2d6 if your firearm has a striking rune, 3d6 if it has a greater striking rune, and 4d6 if it has a major striking rune. This ability does not apply other effects that increase damage with your firearm Strikes such as weapon specialization. Creatures affected by this attack must attempt a basic Reflex save. A creature that fails its save is also pushed 5 feet directly away from you.</p>"
        },
        "requirements": {
            "value": ""
        },
        "rules": [],
        "source": {
            "value": ""
        },
        "traits": {
            "custom": "",
            "rarity": {
                "value": "common"
            },
            "value": [
                "gunslinger"
            ]
        },
        "trigger": {
            "value": ""
        }
    },
    "effects": [],
    "flags": {},
    "img": "systems/pf2e/icons/actions/ThreeActions.webp",
    "name": "Spinning Crush",
    "type": "action"
}
