{
    "_id": "lBMhT2W2raYMa8JS",
    "data": {
        "description": {
            "value": "<p>Granted by @Compendium[pf2e.equipment-srd.Spellguard Shield]{Spellguard Shield}</p>\n<hr />\n<p>Automatically applied effects:</p>\n<ul>\n<li>+2 circumstance bonus to AC</li>\n<li>+2 circumstance bonus to saving throws against spells</li>\n</ul>"
        },
        "duration": {
            "expiry": "turn-start",
            "sustained": false,
            "unit": "rounds",
            "value": 1
        },
        "level": {
            "value": 6
        },
        "rules": [
            {
                "key": "FlatModifier",
                "label": "Spellguard Shield (vs. spells)",
                "predicate": {
                    "all": [
                        "spell"
                    ]
                },
                "selector": "saving-throw",
                "type": "circumstance",
                "value": 2
            },
            {
                "key": "FlatModifier",
                "selector": "ac",
                "type": "circumstance",
                "value": 2
            }
        ],
        "source": {
            "value": ""
        },
        "start": {
            "initiative": null,
            "value": 0
        },
        "target": null,
        "tokenIcon": {
            "show": true
        },
        "traits": {
            "custom": "",
            "rarity": {
                "value": "common"
            },
            "value": []
        }
    },
    "effects": [],
    "flags": {},
    "img": "systems/pf2e/icons/equipment/shields/specific-shields/spellguard-shield.webp",
    "name": "Effect: Spellguard Shield",
    "type": "effect"
}
