{
    "_id": "1mKjaWC65KWPuFR4",
    "data": {
        "description": {
            "value": "<p>Granted by @Compendium[pf2e.equipment-srd.Antidote (Major)]{Antidote (Major)}</p>\n<p>Implemented effects:</p>\n<ul>\n<li>+4 item bonus to Fortitude saves against poisons</li>\n</ul>\n<p>Unimplemented effects:</p>\n<ul>\n<li>Immediately attempt a saving throw against one poison of 14th level or lower affecting you. If you succeed, the poison is neutralised. </li>\n</ul>"
        },
        "duration": {
            "expiry": "turn-start",
            "sustained": false,
            "unit": "hours",
            "value": 6
        },
        "level": {
            "value": 14
        },
        "rules": [
            {
                "key": "FlatModifier",
                "label": "Antidote Major (vs. poison)",
                "predicate": {
                    "all": [
                        "poison"
                    ]
                },
                "selector": "fortitude",
                "type": "item",
                "value": 4
            }
        ],
        "source": {
            "value": ""
        },
        "start": {
            "initiative": null,
            "value": 0
        },
        "target": null,
        "tokenIcon": {
            "show": true
        },
        "traits": {
            "custom": "",
            "rarity": {
                "value": "common"
            },
            "value": []
        }
    },
    "effects": [],
    "flags": {},
    "img": "systems/pf2e/icons/equipment/alchemical-items/alchemical-elixirs/antidote.webp",
    "name": "Effect: Antidote (Major)",
    "type": "effect"
}
