{
    "_id": "VEyowuhC4FsBnG8c",
    "content": "<h1>Folgrit (The Watchful Mother) [LG]</h1><p>Folgrit is the wife of @Compendium[pf2e.deities.Torag]{Torag}, and thus has a prominent role in the dwarven pantheon, having mothered several demigod children. She is patient with her husband and tries to stop him worrying too much, but also makes sure he is aware of the burden of responsibility he bears. Folgrit is the goddess of wives, mothers, and children, and tangentially the goddess of widows and orphans.</p><p></span><strong>Edicts</strong> Maintain the sanctity of a home, remain patient with others, take in those without families</p><p><strong>Anathema</strong> Abandon your family, fail to defend your neighbors</p><p><strong>Follower Alignments</strong> LG, NG, LN</span></p><p></span></p><h2>Devotee Benefits</h2><div><div><strong>Divine Ability</strong> Constitution or Wisdom</div><div><strong>Divine Font</strong> heal</div><div><strong>Divine Skill</strong> Medicine</div><div><strong>Favored Weapon</strong> staff</div><div><strong>Domains</strong> cities, family, protection, repose</div><div><strong>Cleric Spells</strong> 1st: endure, 4th: fire shield, 9th: resplendent mansion</div></div>",
    "flags": {},
    "name": "Folgrit",
    "permission": {
        "default": 0
    }
}
