{
    "_id": "GUmYLD7PGmE2TOx6",
    "content": "<h1>Wadjet (The Green Empress) [LG]</h1><p><strong>Edicts</strong> Defend your homelands and your people, aid childbirths, grow papyrus, protect sources of clean water</p><p><strong>Anathema</strong> Refuse to help a drowning creature, harm a rightful ruler</p><p><strong>Follower Alignments</strong> LG, NG</span></p><h2>Devotee Benefits</h2><div><div><strong>Divine Ability</strong> Dexterity or Wisdom</div><div><strong>Divine Font</strong> heal</div><div><strong>Divine Skill</strong> Nature</div><div><strong>Favored Weapon</strong> light mace</div><div><strong>Domains</strong> protection, travel, water, zeal</div><div><strong>Cleric Spells</strong> 1st: mage armor, 2nd: animal form (snake only), 4th: fly</div></div>",
    "flags": {},
    "name": "Wadjet",
    "permission": {
        "default": 0
    }
}
