{
    "_id": "ZyFTUCbA0zYrzynD",
    "content": "<p><strong>Deities </strong>@Compendium[pf2e.deities.Alglenweis]{Alglenweis}, @Compendium[pf2e.deities.Apsu]{Apsu}, @Compendium[pf2e.deities.Ardad Lili]{Ardad Lili}, @Compendium[pf2e.deities.Brigh]{Brigh}, @Compendium[pf2e.deities.Casandalee]{Casandalee}, @Compendium[pf2e.deities.Daikitsu]{Daikitsu}, @Compendium[pf2e.deities.Doloras]{Doloras}, @Compendium[pf2e.deities.Dwarven Pantheon]{Dwarven Pantheon}, @Compendium[pf2e.deities.Elven Pantheon]{Elven Pantheon}, @Compendium[pf2e.deities.Falayna]{Falayna}, @Compendium[pf2e.deities.Findeladlara]{Findeladlara}, @Compendium[pf2e.deities.Grandmother Spider]{Grandmother Spider}, @Compendium[pf2e.deities.Lady Jingxi]{Lady Jingxi}, @Compendium[pf2e.deities.Likha]{Likha}, @Compendium[pf2e.deities.Mammon]{Mammon}, @Compendium[pf2e.deities.Monad]{Monad}, @Compendium[pf2e.deities.Nocticula]{Nocticula}, @Compendium[pf2e.deities.Otolmens]{Otolmens}, @Compendium[pf2e.deities.Pillars of Knowledge]{Pillars of Knowledge}, @Compendium[pf2e.deities.Shelyn]{Shelyn}, @Compendium[pf2e.deities.Soralyon]{Soralyon}, @Compendium[pf2e.deities.The Prismatic Ray]{The Prismatic Ray}, @Compendium[pf2e.deities.Tlehar]{Tlehar}, @Compendium[pf2e.deities.Torag]{Torag}, @Compendium[pf2e.deities.Yuelral]{Yuelral}</p><p><strong>Domain Spell</strong> @Compendium[pf2e.spells-srd.Splash of Art]{Splash of Art}; <strong>Advanced Domain Spell</strong> @Compendium[pf2e.spells-srd.Artistic Flourish]{Artistic Flourish}</p><p><span id=\"ctl00_MainContent_DetailedOutput\">You have divine abilities related to crafting and art.</span></p><p></p>",
    "flags": {},
    "name": "Creation Domain",
    "permission": {
        "default": 0
    }
}
