{
    "_id": "8pPvbTMZLIsvCwQk",
    "content": "<p><strong>Deities </strong>@Compendium[pf2e.deities.Ahriman]{Ahriman}, @Compendium[pf2e.deities.Ardad Lili]{Ardad Lili}, @Compendium[pf2e.deities.Ashava]{Ashava}, @Compendium[pf2e.deities.Cosmic Caravan]{Cosmic Caravan}, @Compendium[pf2e.deities.Count Ranalc]{Count Ranalc}, @Compendium[pf2e.deities.Grandmother Spider]{Grandmother Spider}, @Compendium[pf2e.deities.Groetus]{Groetus}, @Compendium[pf2e.deities.Kerkamoth]{Kerkamoth}, @Compendium[pf2e.deities.Ketephys]{Ketephys}, @Compendium[pf2e.deities.Lao Shu Po]{Lao Shu Po}, @Compendium[pf2e.deities.Luhar]{Luhar}, @Compendium[pf2e.deities.Nocticula]{Nocticula}, @Compendium[pf2e.deities.Nyarlathotep]{Nyarlathotep}, @Compendium[pf2e.deities.Pulura]{Pulura}, @Compendium[pf2e.deities.Tanagaar]{Tanagaar}, @Compendium[pf2e.deities.Zon-Kuthon]{Zon-Kuthon}</p><p><strong>Domain Spell</strong> @Compendium[pf2e.spells-srd.Cloak of Shadow]{Cloak of Shadow}; <strong>Advanced Domain Spell</strong> @Compendium[pf2e.spells-srd.Darkened Eyes]{Darkened Eyes}</p><p></span><span id=\"ctl00_MainContent_DetailedOutput\">You operate in the darkness and take away the light.</p>",
    "flags": {},
    "name": "Darkness Domain",
    "permission": {
        "default": 0
    }
}
