{
    "_id": "KXFxeEyD6MmJ3a6V",
    "content": "<p><strong>Deities</strong> @Compendium[pf2e.deities.Ravithra]{Ravithra}</p><p><strong>Domain Spell</strong> @Compendium[pf2e.spells-srd.Split the Tongue]{Split the Tongue}; <strong>Advanced Domain Spell</strong> @Compendium[pf2e.spells-srd.Ordained Purpose]{Ordained Purpose}</p><p><span id=\"ctl00_MainContent_DetailedOutput\">Like the serpentine nagas, you're in tune with cosmic forces that Ravithra once controlled.&nbsp;</span></p><p></p>",
    "flags": {},
    "name": "Naga Domain",
    "permission": {
        "default": 0
    }
}
