{
    "_id": "vyb3BYDiIl2MiZp4",
    "data": {
        "actionCategory": {
            "value": "defensive"
        },
        "actionType": {
            "value": "reaction"
        },
        "actions": {
            "value": null
        },
        "description": {
            "value": "<p><strong>Trigger</strong> You attempt a saving throw against a disease or poison effect that affects an area.</p>\n<hr />\n<p>Your skin readily absorbs poison and can consciously draw toxins into your body to spare others. Attempt a counteract check against the triggering effect; your counteract level equals half your level (rounded up), and for the roll use either your class DC -10 or your spellcasting ability modifier plus your spellcasting proficiency bonus. If you counteract the triggering effect, you end the effect for all other creatures in the area; however, you must still save against the effect with a –2 penalty to the initial save.</p>"
        },
        "featType": {
            "value": "ancestry"
        },
        "level": {
            "value": 9
        },
        "location": "",
        "prerequisites": {
            "value": [
                {
                    "value": "You are not immune to diseases or poisons"
                }
            ]
        },
        "rules": [],
        "source": {
            "value": "Pathfinder Lost Omens: The Mwangi Expanse"
        },
        "traits": {
            "custom": "",
            "rarity": {
                "value": "common"
            },
            "value": [
                "grippli"
            ]
        }
    },
    "effects": [],
    "flags": {},
    "img": "systems/pf2e/icons/default-icons/feats.webp",
    "name": "Absorb Toxin",
    "type": "feat"
}
