{
    "_id": "jZbhRBR2yawntSmd",
    "data": {
        "actionCategory": {
            "value": ""
        },
        "actionType": {
            "value": "passive"
        },
        "actions": {
            "value": null
        },
        "description": {
            "value": "<p>When you cast mage hand, you can modify its target to be a set of thieves' tools. When you Cast the Spell in this way, the tools move up to 20 feet towards a device or lock. After you Sustain the Spell on future turns, you can use the tools to attempt Thievery checks to Disable a Device or Pick a Lock within the spell's range, but you take a -2 penalty to your Thievery check. If you critically fail, the spell ends and you can't use this modification again for 24 hours.</p>"
        },
        "featType": {
            "value": "archetype"
        },
        "level": {
            "value": 4
        },
        "location": "",
        "prerequisites": {
            "value": [
                {
                    "value": "Spell Trickster Dedication"
                },
                {
                    "value": "ability to cast mage hand"
                }
            ]
        },
        "rules": [],
        "source": {
            "value": ""
        },
        "traits": {
            "custom": "",
            "rarity": {
                "value": "common"
            },
            "value": [
                "archetype"
            ]
        }
    },
    "effects": [],
    "flags": {},
    "img": "systems/pf2e/icons/default-icons/feats.webp",
    "name": "Agile Hand",
    "type": "feat"
}
