{
    "_id": "u94fcPT5Oukqzql5",
    "data": {
        "actionCategory": {
            "value": ""
        },
        "actionType": {
            "value": "passive"
        },
        "actions": {
            "value": null
        },
        "description": {
            "value": "<p>You can cast <em>@Compendium[pf2e.spells-srd.Purify Food and Drink]{Purify Food and Drink}</em> as a primal innate spell, but only on liquids. You can cast this spell once every 10 minutes.</p>\n<p>You can also use your innate <em>purify food and drink</em> on a touched creature instead of a liquid to purify their blood, giving that creature a +2 status bonus for 1 minute on their ongoing saves against poisons already present in their body when you cast the spell.</p>\n<p>@Compendium[pf2e.feat-effects.Effect: Azarketi Purification]{Effect: Azarketi Purification}</p>"
        },
        "featType": {
            "value": "ancestry"
        },
        "level": {
            "value": 9
        },
        "location": "",
        "prerequisites": {
            "value": []
        },
        "rules": [],
        "source": {
            "value": "Pathfinder Lost Omens: Ancestry Guide"
        },
        "traits": {
            "custom": "",
            "rarity": {
                "value": "common"
            },
            "value": [
                "azarketi"
            ]
        }
    },
    "effects": [],
    "flags": {},
    "img": "systems/pf2e/icons/default-icons/feats.webp",
    "name": "Azarketi Purification",
    "type": "feat"
}
