{
    "_id": "zL6zUrt44tZYyuh4",
    "data": {
        "actionCategory": {
            "value": ""
        },
        "actionType": {
            "value": "passive"
        },
        "actions": {
            "value": null
        },
        "description": {
            "value": "<p>Underestimating you is a grave mistake, but it's one others keep making. You've learned to take advantage of slips in your foes' defenses.</p>\n<p>When you @Compendium[pf2e.actionspf2e.Strike]{Strike} a @Compendium[pf2e.conditionitems.Flat-Footed]{Flat-Footed} creature using a melee weapon or unarmed attack that has the agile and finesse traits, it gains the backstabber trait.</p>"
        },
        "featType": {
            "value": "ancestry"
        },
        "level": {
            "value": 9
        },
        "prerequisites": {
            "value": []
        },
        "rules": [],
        "source": {
            "value": "Pathfinder Advanced Player's Guide"
        },
        "traits": {
            "custom": "",
            "rarity": {
                "value": "common"
            },
            "value": [
                "kobold"
            ]
        }
    },
    "effects": [],
    "flags": {},
    "img": "systems/pf2e/icons/features/feats/feats.webp",
    "name": "Between The Scales",
    "type": "feat"
}
