{
    "_id": "NtaOLg9meDYfg8aV",
    "data": {
        "actionCategory": {
            "value": ""
        },
        "actionType": {
            "value": "action"
        },
        "actions": {
            "value": 2
        },
        "description": {
            "value": "<p>You call upon divine power and make a weapon or unarmed Strike against a foe you have witnessed harming an ally or innocent.</p>\n<p>The Strike deals two extra weapon damage dice if the target of your Strike is evil.</p>\n<p>Whether or not the target is evil, you can convert all the physical damage from the attack into good damage, and if you are a paladin, the Strike applies all effects that normally apply on a Retributive Strike (such as divine smite).</p>"
        },
        "featType": {
            "value": "class"
        },
        "level": {
            "value": 12
        },
        "location": "",
        "prerequisites": {
            "value": []
        },
        "rules": [
            {
                "key": "ToggleProperty",
                "label": "Blade of Justice",
                "property": "flags.pf2e.rollOptions.damage-roll.blade-justice"
            },
            {
                "diceNumber": 2,
                "key": "DamageDice",
                "predicate": {
                    "all": [
                        "blade-justice"
                    ]
                },
                "selector": "damage"
            }
        ],
        "source": {
            "value": "Pathfinder Core Rulebook"
        },
        "traits": {
            "custom": "",
            "rarity": {
                "value": "common"
            },
            "value": [
                "champion"
            ]
        }
    },
    "effects": [],
    "flags": {},
    "img": "systems/pf2e/icons/features/feats/feats.webp",
    "name": "Blade of Justice",
    "type": "feat"
}
