{
    "_id": "lmAuoHPxzQdaSUmN",
    "data": {
        "actionCategory": {
            "value": ""
        },
        "actionType": {
            "value": "reaction"
        },
        "actions": {
            "value": null
        },
        "description": {
            "value": "<p><strong>Requirements</strong> You aren't @Compendium[pf2e.conditionitems.Encumbered]{Encumbered} or overburdened.</p>\n<p><strong>Trigger</strong> You succeed or critically succeed at a Reflex saving throw.</p>\n<hr />\n<p>You Step up to 10 feet.</p>"
        },
        "featType": {
            "value": "archetype"
        },
        "level": {
            "value": 12
        },
        "prerequisites": {
            "value": [
                {
                    "value": "Provocator Dedication"
                }
            ]
        },
        "rules": [],
        "source": {
            "value": "Pathfinder #159: All or Nothing"
        },
        "traits": {
            "custom": "",
            "rarity": {
                "value": "common"
            },
            "value": [
                "archetype"
            ]
        }
    },
    "effects": [],
    "flags": {},
    "img": "systems/pf2e/icons/features/feats/feats.webp",
    "name": "Cartwheel Dodge",
    "type": "feat"
}
