{
    "_id": "dF1HR6TqyMz03o6F",
    "data": {
        "actionCategory": {
            "value": ""
        },
        "actionType": {
            "value": "action"
        },
        "actions": {
            "value": 1
        },
        "description": {
            "value": "<p><strong>Requirements</strong> You have one hand free, and your target is within reach of that hand</p>\n<hr />\n<p>You swipe at your opponent and grab at them.</p>\n<p>Make a melee Strike while keeping one hand free. If the Strike hits, you grab the target using your free hand. The creature remains @Compendium[pf2e.conditionitems.Grabbed]{Grabbed} until the end of your next turn or until it @Compendium[pf2e.actionspf2e.Escape]{Escapes}, whichever comes first.</p>"
        },
        "featType": {
            "value": "class"
        },
        "level": {
            "value": 2
        },
        "prerequisites": {
            "value": []
        },
        "rules": [],
        "source": {
            "value": "Pathfinder Core Rulebook"
        },
        "traits": {
            "custom": "",
            "rarity": {
                "value": "common"
            },
            "value": [
                "fighter",
                "press"
            ]
        }
    },
    "effects": [],
    "flags": {},
    "img": "systems/pf2e/icons/features/feats/feats.webp",
    "name": "Combat Grab",
    "type": "feat"
}
