{
    "_id": "amPQHO9O86G6AC4P",
    "data": {
        "actionCategory": {
            "value": "offensive"
        },
        "actionType": {
            "value": "action"
        },
        "actions": {
            "value": 2
        },
        "description": {
            "value": "<p><strong>Requirements</strong> You are in Arcane Cascade stance and your Spellstrike is charged.</p>\n<hr />\n<p>Your Spellstrike sweeps are so wide and devastating, they splash onto nearby foes. Make a Spellstrike. Foes adjacent to the target take splash damage equal to 2 + the extra damage from Arcane Cascade. The damage type is the same as Arcane Cascade; if the spell already deals splash damage of the same type, combine the damage together before applying weaknesses or resistances.</p>"
        },
        "featType": {
            "value": "class"
        },
        "level": {
            "value": 4
        },
        "location": "",
        "prerequisites": {
            "value": [
                {
                    "value": "Arcane Cascade"
                },
                {
                    "value": "inexorable iron hybrid study"
                },
                {
                    "value": "Spellstrike"
                }
            ]
        },
        "rules": [],
        "source": {
            "value": ""
        },
        "traits": {
            "custom": "",
            "rarity": {
                "value": "common"
            },
            "value": [
                "magus"
            ]
        }
    },
    "effects": [],
    "flags": {},
    "img": "systems/pf2e/icons/features/feats/feats.webp",
    "name": "Devastating Spellstrike",
    "type": "feat"
}
