{
    "_id": "lknYlp0ekVyBWQK9",
    "data": {
        "actionCategory": {
            "value": ""
        },
        "actionType": {
            "value": "passive"
        },
        "actions": {
            "value": null
        },
        "description": {
            "value": "<p>You have a sense for when people are lying. You gain a +1 circumstance bonus on your secret Perception checks to Sense Motive.</p>\n<p>If you use Sense Motive on a creature you have currently condemned with Harsh Judgment, your GM rolls the Perception check twice and takes the higher result (this is a fortune effect).</p>"
        },
        "featType": {
            "value": "archetype"
        },
        "level": {
            "value": 6
        },
        "location": "",
        "prerequisites": {
            "value": [
                {
                    "value": "Vigilante Dedication"
                },
                {
                    "value": "Member of the Grey Gardeners"
                }
            ]
        },
        "rules": [
            {
                "key": "FlatModifier",
                "predicate": {
                    "all": [
                        "action:sense-motive"
                    ]
                },
                "selector": "perception",
                "type": "circumstance",
                "value": 1
            },
            {
                "key": "Note",
                "predicate": {
                    "all": [
                        "action:sense-motive",
                        "harsh-judgement"
                    ]
                },
                "selector": "perception",
                "text": "<p class='compact-text'><strong>{item|name}</strong> you use Sense Motive on a creature you have currently condemned with Harsh Judgment, your GM rolls the Perception check twice and takes the higher result (this is a fortune effect).</p>"
            }
        ],
        "source": {
            "value": ""
        },
        "traits": {
            "custom": "",
            "rarity": {
                "value": "common"
            },
            "value": [
                "archetype"
            ]
        }
    },
    "effects": [],
    "flags": {},
    "img": "systems/pf2e/icons/default-icons/feats.webp",
    "name": "Discerning Gaze",
    "type": "feat"
}
