{
    "_id": "SUNLm99CgsS5M3Eq",
    "data": {
        "actionCategory": {
            "value": "defensive"
        },
        "actionType": {
            "value": "free"
        },
        "actions": {
            "value": null
        },
        "description": {
            "value": "<p><strong>Trigger</strong> You hit your condemned foe with a melee Strike in the same turn during which you condemned it with Harsh Judgment.</p>\n<p><strong>Requirements</strong> You have condemned a foe to death with Harsh Judgment.</p>\n<hr />\n<p>Your willingness to follow through on your pitiless judgment is frightful to the person you have condemned, and they begin to dread what you will do to them next. Your condemned foe is @Compendium[pf2e.conditionitems.Frightened]{Frightened 1}, or @Compendium[pf2e.conditionitems.Frightened]{Frightened 2} if the triggering Strike was a critical hit.</p>"
        },
        "featType": {
            "value": "archetype"
        },
        "level": {
            "value": 6
        },
        "location": "",
        "prerequisites": {
            "value": [
                {
                    "value": "Vigilante Dedication"
                },
                {
                    "value": "Member of the Grey Gardeners"
                },
                {
                    "value": "Harsh Judgement"
                }
            ]
        },
        "rules": [],
        "source": {
            "value": ""
        },
        "traits": {
            "custom": "",
            "rarity": {
                "value": "common"
            },
            "value": [
                "archetype",
                "emotion",
                "fear",
                "mental",
                "vigilante"
            ]
        }
    },
    "effects": [],
    "flags": {},
    "img": "systems/pf2e/icons/default-icons/feats.webp",
    "name": "Frightful Condemnation",
    "type": "feat"
}
