{
    "_id": "XFJiGllNZp8Xebda",
    "data": {
        "actionCategory": {
            "value": ""
        },
        "actionType": {
            "value": "passive"
        },
        "actions": {
            "value": null
        },
        "description": {
            "value": "<p>In situations where you can physically menace the target when you Coerce or Demoralize, you gain a +1 circumstance bonus to your Intimidation check and you ignore the penalty for not sharing a language. If your Strength score is 20 or higher and you are a master in Intimidation, this bonus increases to +2.</p>"
        },
        "featType": {
            "value": "skill"
        },
        "level": {
            "value": 2
        },
        "location": "",
        "prerequisites": {
            "value": [
                {
                    "value": "Strength 16"
                },
                {
                    "value": "expert in Intimidation"
                }
            ]
        },
        "rules": [
            {
                "key": "FlatModifier",
                "label": "Intimidating Prowess (physically menace with Coerce or Demoralize)",
                "predicate": {
                    "all": [
                        "target:physically-menaced"
                    ],
                    "any": [
                        "action:coerce",
                        "action:demoralize"
                    ]
                },
                "selector": "intimidation",
                "type": "circumstance",
                "value": {
                    "brackets": [
                        {
                            "end": 4,
                            "start": 3,
                            "value": "round(@abilities.str.mod / 3)"
                        },
                        {
                            "end": 2,
                            "start": 2,
                            "value": 1
                        }
                    ],
                    "field": "actor|data.skills.itm.rank"
                }
            }
        ],
        "source": {
            "value": "Pathfinder Core Rulebook"
        },
        "traits": {
            "custom": "",
            "rarity": {
                "value": "common"
            },
            "value": [
                "general",
                "skill"
            ]
        }
    },
    "effects": [],
    "flags": {},
    "img": "systems/pf2e/icons/features/feats/feats.webp",
    "name": "Intimidating Prowess",
    "type": "feat"
}
