{
    "_id": "pivX2SxPQjKDyvHU",
    "data": {
        "actionCategory": {
            "value": ""
        },
        "actionType": {
            "value": "passive"
        },
        "actions": {
            "value": null
        },
        "description": {
            "value": "<p>Your iruxi unarmed attacks channel the spiritual energy of your ancestors. Any unarmed attacks you acquire from iruxi heritages or ancestry feats gain the effects of a @Compendium[pf2e.equipment-srd.Ghost Touch]{Ghost Touch} property rune.</p>"
        },
        "featType": {
            "value": "ancestry"
        },
        "level": {
            "value": 13
        },
        "location": "",
        "prerequisites": {
            "value": []
        },
        "rules": [],
        "source": {
            "value": "Pathfinder Lost Omens: Ancestry Guide"
        },
        "traits": {
            "custom": "",
            "rarity": {
                "value": "common"
            },
            "value": [
                "lizardfolk"
            ]
        }
    },
    "effects": [],
    "flags": {},
    "img": "systems/pf2e/icons/features/feats/feats.webp",
    "name": "Iruxi Spirit Strike",
    "type": "feat"
}
