{
    "_id": "IZbjUaZI5zHTd1Vp",
    "data": {
        "actionCategory": {
            "value": ""
        },
        "actionType": {
            "value": "passive"
        },
        "actions": {
            "value": null
        },
        "description": {
            "value": "<p>Your ability to Steal defies belief. You can attempt to Steal something that is actively wielded or that would be extremely noticeable or time consuming to remove (like worn shoes or armor). You must do so slowly and carefully, spending at least 1 minute (and significantly longer for items that are normally time consuming to remove, like armor). Throughout this duration you must have some means of staying hidden, such as the cover of darkness or a bustling crowd. You take a -5 penalty to your Thievery check. Even if you succeed, if the item is extremely prominent-like a suit of full plate armor-onlookers will quickly notice it's gone after you steal it.</p>"
        },
        "featType": {
            "value": "skill"
        },
        "level": {
            "value": 15
        },
        "prerequisites": {
            "value": [
                {
                    "value": "legendary in Thievery"
                },
                {
                    "value": "Pickpocket"
                }
            ]
        },
        "rules": [],
        "source": {
            "value": "Pathfinder Core Rulebook"
        },
        "traits": {
            "custom": "",
            "rarity": {
                "value": "common"
            },
            "value": [
                "general",
                "skill"
            ]
        }
    },
    "effects": [],
    "flags": {},
    "img": "systems/pf2e/icons/features/feats/feats.webp",
    "name": "Legendary Thief",
    "type": "feat"
}
