{
    "_id": "stwRJTOKUru9AmQC",
    "data": {
        "actionCategory": {
            "value": "offensive"
        },
        "actionType": {
            "value": "action"
        },
        "actions": {
            "value": 2
        },
        "description": {
            "value": "<p><strong>Requirements</strong> You're wielding a ranged or thrown weapon, or have a ranged unarmed attack.</p>\n<hr />\n<p>A trail of energy flows from your target back to you. Make a Spellstrike with a ranged weapon or ranged unarmed attack against a target within the ranged weapon or unarmed attack's first range increment. The spell you cast for the Spellstrike can't be a cantrip or focus spell. Each creature in a line between you and the target, excluding you and the target, takes damage equal to double the spell's level. Determine the damage type as described in Arcane Cascade.</p>"
        },
        "featType": {
            "value": "class"
        },
        "level": {
            "value": 10
        },
        "location": "",
        "prerequisites": {
            "value": [
                {
                    "value": "Spellstrike"
                },
                {
                    "value": "starlit span hybrid study"
                }
            ]
        },
        "rules": [],
        "source": {
            "value": ""
        },
        "traits": {
            "custom": "",
            "rarity": {
                "value": "common"
            },
            "value": [
                "arcane",
                "evocation",
                "magus"
            ]
        }
    },
    "effects": [],
    "flags": {},
    "img": "systems/pf2e/icons/features/feats/feats.webp",
    "name": "Meteoric Spellstrike",
    "type": "feat"
}
