{
    "_id": "4PvmSnyp3URIqJUM",
    "data": {
        "actionCategory": {
            "value": ""
        },
        "actionType": {
            "value": "action"
        },
        "actions": {
            "value": 2
        },
        "description": {
            "value": "<p><strong>Requirements</strong> You are wielding a loaded ranged weapon or a ranged weapon with reload 0.</p>\n<hr />\n<p>You jump back and fire a quick shot that catches your opponent off guard.</p>\n<p>You Step and then make a ranged Strike with the required weapon. Your target is @Compendium[pf2e.conditionitems.Flat-Footed]{Flat-Footed} against the attack.</p>"
        },
        "featType": {
            "value": "class"
        },
        "level": {
            "value": 4
        },
        "prerequisites": {
            "value": []
        },
        "rules": [],
        "source": {
            "value": "Pathfinder Advanced Player's Guide"
        },
        "traits": {
            "custom": "",
            "rarity": {
                "value": "common"
            },
            "value": [
                "fighter"
            ]
        }
    },
    "effects": [],
    "flags": {},
    "img": "systems/pf2e/icons/features/feats/feats.webp",
    "name": "Parting Shot",
    "type": "feat"
}
