{
    "_id": "4Q9Q41KLPYJMdV4b",
    "data": {
        "actionCategory": {
            "value": ""
        },
        "actionType": {
            "value": "reaction"
        },
        "actions": {
            "value": null
        },
        "description": {
            "value": "<p><strong>Trigger</strong> varies</p>\n<hr />\n<p>You transform reflexively when in danger. You cast <em>@Compendium[pf2e.spells-srd.Wild Shape]{Wild Shape}</em> to transform into one form granted by one of the prerequisite feats you have, depending on the trigger. Your form's resistances and weaknesses apply against the triggering damage.</p>\n<hr />\n<p><strong>Trigger</strong> You fall 10 feet or more</p>\n<p><strong>Effect</strong> Choose a form from <em>@Compendium[pf2e.spells-srd.Aerial Form]{Aerial Form}</em>.</p>\n<hr />\n<p><strong>Trigger</strong> You take acid, cold, electricity, fire, or poison damage</p>\n<p><strong>Effect</strong> Choose a form from <em>@Compendium[pf2e.spells-srd.Dragon Form]{Dragon Form}</em> that resists the triggering damage.</p>\n<hr />\n<p><strong>Trigger</strong> You take fire damage</p>\n<p><strong>Effect</strong> Choose a fire elemental form from <em>@Compendium[pf2e.spells-srd.Elemental Form]{Elemental Form}</em>.</p>\n<hr />\n<p><strong>Trigger</strong> You take poison damage</p>\n<p><strong>Effect</strong> Choose a form from <em>@Compendium[pf2e.spells-srd.Plant Form]{Plant Form}</em>.</p>"
        },
        "featType": {
            "value": "class"
        },
        "level": {
            "value": 14
        },
        "prerequisites": {
            "value": [
                {
                    "value": "Wild Shape; Dragon Shape, Elemental Shape, Plant Shape, or Soaring Shape"
                }
            ]
        },
        "rules": [],
        "source": {
            "value": "Pathfinder Advanced Player's Guide"
        },
        "traits": {
            "custom": "",
            "rarity": {
                "value": "common"
            },
            "value": [
                "druid"
            ]
        }
    },
    "effects": [],
    "flags": {},
    "img": "systems/pf2e/icons/features/feats/feats.webp",
    "name": "Reactive Transformation",
    "type": "feat"
}
