{
    "_id": "ybrx1nsg5J0L8d3j",
    "data": {
        "actionCategory": {
            "value": ""
        },
        "actionType": {
            "value": "passive"
        },
        "actions": {
            "value": null
        },
        "description": {
            "value": "<p>You can project your premonitions of clarity to your allies.</p>\n<p>When you use @Compendium[pf2e.feats-srd.Premonition Of Clarity]{Premonition Of Clarity}, allies within 15 feet of you who failed the same saving throw against the same mental effect can also spend their reactions to reroll the failed saving throw with a +2 circumstance bonus.</p>\n<p>@Compendium[pf2e.feat-effects.Effect: Shared Clarity]{Effect: Shared Clarity}</p>"
        },
        "featType": {
            "value": "class"
        },
        "level": {
            "value": 18
        },
        "location": "",
        "prerequisites": {
            "value": [
                {
                    "value": "Premonition of Clarity"
                }
            ]
        },
        "rules": [],
        "source": {
            "value": "Pathfinder Advanced Player's Guide"
        },
        "traits": {
            "custom": "",
            "rarity": {
                "value": "common"
            },
            "value": [
                "cleric"
            ]
        }
    },
    "effects": [],
    "flags": {},
    "img": "systems/pf2e/icons/features/feats/feats.webp",
    "name": "Shared Clarity",
    "type": "feat"
}
