{
    "_id": "zwEaXGKqnlBTllfE",
    "data": {
        "actionCategory": {
            "value": ""
        },
        "actionType": {
            "value": "reaction"
        },
        "actions": {
            "value": null
        },
        "description": {
            "value": "<p><strong>Trigger</strong> An ally @Compendium[pf2e.actionspf2e.Cast a Spell]{Casts a Spell} and you are within that spell's range.</p>\n<hr />\n<p>You open the power in your blood to your ally's spellcasting, using your magic to boost their range. Your ally can use you as the point of origin for their spell, calculating range and cover from your space instead of their own.</p>"
        },
        "featType": {
            "value": "class"
        },
        "level": {
            "value": 6
        },
        "prerequisites": {
            "value": []
        },
        "rules": [],
        "source": {
            "value": "Pathfinder Advanced Player's Guide"
        },
        "traits": {
            "custom": "",
            "rarity": {
                "value": "common"
            },
            "value": [
                "concentrate",
                "sorcerer"
            ]
        }
    },
    "effects": [],
    "flags": {},
    "img": "systems/pf2e/icons/features/feats/feats.webp",
    "name": "Spell Relay",
    "type": "feat"
}
