{
    "_id": "FCzfh8QHMo7QJpAM",
    "data": {
        "actionCategory": {
            "value": ""
        },
        "actionType": {
            "value": "passive"
        },
        "actions": {
            "value": null
        },
        "description": {
            "value": "<p>You are particularly adept at learning spells to add to your spellbook. You can @Compendium[pf2e.actionspf2e.Learn a Spell]{Learn a Spell} in half the time it normally takes.</p>\n<p>Further, when you roll a critical failure on your check to Learn a Spell, you get a failure instead. When you roll a failure, you can try again after 1 week.</p>"
        },
        "featType": {
            "value": "class"
        },
        "level": {
            "value": 1
        },
        "prerequisites": {
            "value": [
                {
                    "value": "trained in Arcana"
                }
            ]
        },
        "rules": [],
        "source": {
            "value": "Pathfinder Advanced Player's Guide"
        },
        "traits": {
            "custom": "",
            "rarity": {
                "value": "common"
            },
            "value": [
                "wizard"
            ]
        }
    },
    "effects": [],
    "flags": {},
    "img": "systems/pf2e/icons/features/feats/feats.webp",
    "name": "Spellbook Prodigy",
    "type": "feat"
}
