{
    "_id": "Fs9ZMHZNCBo7B5Zc",
    "data": {
        "actionCategory": {
            "value": ""
        },
        "actionType": {
            "value": "passive"
        },
        "actions": {
            "value": null
        },
        "description": {
            "value": "<p>You've sworn an oath to hunt down wicked evildoers and bring them to judgment. Add the following tenet to your code after the others: \"You must hunt down and exterminate evil creatures that have committed heinous atrocities as long as you have a reasonable chance of success and aren't engaged in a mission that would prevent your doing so.\"</p>\n<section>\n<p>You can use <em>@Compendium[pf2e.spells-srd.Lay on Hands]{Lay on Hands}</em> to damage a creature you witness harming an innocent or a good ally as if it were undead; in this case, lay on hands deals good damage instead of positive damage and gains the good trait. This good damage can affect non-evil creatures. This doesn't prevent you from healing such a creature with lay on hands; you choose whether to heal or harm.</p>\n</section>"
        },
        "featType": {
            "value": "class"
        },
        "level": {
            "value": 2
        },
        "location": "",
        "prerequisites": {
            "value": [
                {
                    "value": "paladin cause"
                }
            ]
        },
        "rules": [],
        "source": {
            "value": "Pathfinder Core Rulebook"
        },
        "traits": {
            "custom": "",
            "rarity": {
                "value": "common"
            },
            "value": [
                "champion",
                "oath"
            ]
        }
    },
    "effects": [],
    "flags": {},
    "img": "systems/pf2e/icons/features/feats/feats.webp",
    "name": "Vengeful Oath",
    "type": "feat"
}
