{
    "_id": "fV940VM5RCsNwUvA",
    "data": {
        "actionCategory": {
            "value": ""
        },
        "actionType": {
            "value": "passive"
        },
        "actions": {
            "value": null
        },
        "description": {
            "value": "<p><strong>Major Curse</strong>: You have wronged those unable to obtain revenge for themselves, and Calistria's curse grants their revenge its own life.</p>\n<p>Whenever another creature imagines vengeance upon you but can't pursue that vengeance because you are too powerful, well connected, or otherwise untouchable, a creature of roughly your level manifests out of their imagination and performs their desired revenge.</p>\n<p>Once the revenge is complete or the manifestation is destroyed, the summoned creature vanishes from existence.</p>"
        },
        "featType": {
            "value": "curse"
        },
        "level": {
            "value": 0
        },
        "prerequisites": {
            "value": []
        },
        "rules": [],
        "source": {
            "value": ""
        },
        "traits": {
            "custom": "",
            "rarity": {
                "value": "common"
            },
            "selected": {},
            "value": []
        }
    },
    "effects": [],
    "flags": {},
    "img": "systems/pf2e/icons/deity/Calistria.webp",
    "name": "Calistria - Major Curse",
    "type": "feat"
}
