{
    "_id": "3u3vav6qfAW6hPKE",
    "data": {
        "actionCategory": {
            "value": ""
        },
        "actionType": {
            "value": "passive"
        },
        "actions": {
            "value": null
        },
        "description": {
            "value": "<p><strong>Moderate Curse</strong>: Erastil's beasts take a dislike to you. Animals' attitudes toward you are one category worse (friendly instead of helpful, indifferent instead of friendly, and so on).</p>"
        },
        "featType": {
            "value": "curse"
        },
        "level": {
            "value": 0
        },
        "prerequisites": {
            "value": []
        },
        "rules": [],
        "source": {
            "value": ""
        },
        "traits": {
            "custom": "",
            "rarity": {
                "value": "common"
            },
            "selected": {},
            "value": []
        }
    },
    "effects": [],
    "flags": {},
    "img": "systems/pf2e/icons/deity/Erastil.webp",
    "name": "Erastil - Moderate Curse",
    "type": "feat"
}
