{
    "_id": "YCno88Te0nfwFgVo",
    "data": {
        "description": {
            "value": "<p>You surround yourself in a mantle of frigid ice magic, and your skin and armor morph into cold blue ice. Freezing air emanates from your body, sending a chill down anyone's spine who draws too close and leaving a fine dusting of frost in your wake. As a single action, which has the concentrate trait, you can change one of your chosen abilities to a different option from the list.</p>\n<ul>\n<li><strong>Ice Glide</strong> Ice trails from your feet for an instant as you move, allowing you to skate rapidly along the ice. You don't need to Balance on ice, and you ignore difficult terrain caused by ice or snow. While moving along a smooth surface, you gain a +20-foot status bonus to your land Speed.</li>\n</ul>"
        },
        "duration": {
            "expiry": "turn-start",
            "sustained": false,
            "unit": "minutes",
            "value": 1
        },
        "level": {
            "value": 5
        },
        "rules": [
            {
                "key": "FlatModifier",
                "label": "Mantle of the Frozen Heart (Ice Glide)",
                "selector": "land-speed",
                "type": "status",
                "value": 20
            }
        ],
        "source": {
            "value": ""
        },
        "start": {
            "initiative": null,
            "value": 0
        },
        "target": null,
        "tokenIcon": {
            "show": true
        },
        "traits": {
            "custom": "",
            "rarity": {
                "value": "common"
            },
            "value": []
        }
    },
    "effects": [],
    "flags": {},
    "img": "systems/pf2e/icons/spells/mantle-of-the-frozen-heart.webp",
    "name": "Spell Effect: Mantle of the Frozen Heart (Ice Glide)",
    "type": "effect"
}
