{
    "_id": "tYOMBiH3HbViNWwn",
    "data": {
        "actionCategory": {
            "value": ""
        },
        "actionType": {
            "value": "passive"
        },
        "actions": {
            "value": null
        },
        "description": {
            "value": "<p>Through lineage, magic, or wishes made real, the blood of a noble genie flows through your veins.</p>\n<p><strong>Spell List</strong> arcane</p>\n<p><strong>Bloodline Skills</strong> Arcana, Deception</p>\n<p><strong>Granted Spells</strong> cantrip: <em>@Compendium[pf2e.spells-srd.Detect Magic]{Detect Magic}</em>; 1st: <em>@Compendium[pf2e.spells-srd.Illusory Disguise]{Illusory Disguise}</em>; 2nd: variable (see Genie Type below); 3rd: <em>@Compendium[pf2e.spells-srd.Enthrall]{Enthrall}</em>; 4th: <em>@Compendium[pf2e.spells-srd.Creation]{Creation}</em>; 5th: variable (see Genie Type below); 6th: <em>@Compendium[pf2e.spells-srd.True Seeing]{True Seeing}</em>; 7th: <em>@Compendium[pf2e.spells-srd.Energy Aegis]{Energy Aegis}</em>; 8th: variable (see Genie Type below); 9th: <em>@Compendium[pf2e.spells-srd.Resplendent Mansion]{Resplendent Mansion}</em></p>\n<p><strong>Bloodline Spells</strong> initial: <em>@Compendium[pf2e.spells-srd.Genie's Veil]{Genie's Veil}</em>; advanced: <em>@Compendium[pf2e.spells-srd.Heart's Desire]{Heart's Desire}</em>; greater: <em>@Compendium[pf2e.spells-srd.Wish-Twisted Form]{Wish-Twisted Form}</em></p>\n<p><strong>Blood Magic</strong> Your spellcasting warps reality and distracts your foes. Either you gain a +1 status bonus to Deception checks for 1 round, or a target takes a -1 status penalty to Perception for 1 round.</p>\n<p>@Compendium[pf2e.feature-effects.Effect: Genie Blood Magic (Self)]{Effect: Genie Blood Magic (Self)}, @Compendium[pf2e.feature-effects.Effect: Genie Blood Magic (Target)]{Effect: Genie Blood Magic (Target)}</p>\n<p><strong>Genie Type</strong></p>\n<p>At 1st level, choose the type of genie that influenced your bloodline: janni, djinni, efreeti, marid, or shaitan. You can't change your genie type later. This determines what granted spells you receive at 2nd, 5th, and 8th level.</p>\n<ul>\n<li><strong>Janni</strong> 2nd: <em>@Compendium[pf2e.spells-srd.Create Food]{Create Food}</em>; 5th: <em>@Compendium[pf2e.spells-srd.Banishment]{Banishment}</em>; 8th: <em>@Compendium[pf2e.spells-srd.Scintillating Pattern]{Scintillating Pattern}</em></li>\n<li><strong>Djinni</strong> 2nd: <em>@Compendium[pf2e.spells-srd.Invisibility]{Invisibility}</em>; 5th: <em>@Compendium[pf2e.spells-srd.Illusory Scene]{Illusory Scene}</em>; 8th: <em>@Compendium[pf2e.spells-srd.Punishing Winds]{Punishing Winds}</em></li>\n<li><strong>Efreeti</strong> 2nd: <em>@Compendium[pf2e.spells-srd.Enlarge]{Enlarge}</em>; 5th: <em>@Compendium[pf2e.spells-srd.Elemental Form]{Elemental Form}</em> (fire only); 8th: <em>@Compendium[pf2e.spells-srd.Maze]{Maze}</em></li>\n<li><strong>Marid</strong> 2nd: <em>@Compendium[pf2e.spells-srd.Water Walk]{Water Walk}</em>; 5th: <em>@Compendium[pf2e.spells-srd.Control Water]{Control Water}</em>; 8th: <em>@Compendium[pf2e.spells-srd.Horrid Wilting]{Horrid Wilting}</em></li>\n<li><strong>Shaitan</strong> 2nd: <em>@Compendium[pf2e.spells-srd.Glitterdust]{Glitterdust}</em>; 5th: <em>@Compendium[pf2e.spells-srd.Wall of Stone]{Wall of Stone}</em>; 8th: <em>@Compendium[pf2e.spells-srd.Earthquake]{Earthquake}</em></li>\n</ul>"
        },
        "featType": {
            "value": "classfeature"
        },
        "level": {
            "value": 1
        },
        "location": "",
        "prerequisites": {
            "value": []
        },
        "rules": [
            {
                "key": "ActiveEffectLike",
                "mode": "upgrade",
                "path": "data.resources.focus.max",
                "priority": 10,
                "value": 1
            },
            {
                "key": "ActiveEffectLike",
                "mode": "upgrade",
                "path": "data.skills.arc.rank",
                "value": 1
            },
            {
                "key": "ActiveEffectLike",
                "mode": "upgrade",
                "path": "data.skills.dec.rank",
                "value": 1
            },
            {
                "key": "ActiveEffectLike",
                "mode": "override",
                "path": "data.proficiencies.aliases.sorcerer",
                "priority": 39,
                "value": "arcane"
            }
        ],
        "source": {
            "value": ""
        },
        "traits": {
            "custom": "",
            "rarity": {
                "value": "common"
            },
            "value": [
                "sorcerer"
            ]
        }
    },
    "effects": [],
    "flags": {},
    "img": "systems/pf2e/icons/features/classes/genie.webp",
    "name": "Bloodline: Genie",
    "type": "feat"
}
