{
    "_id": "PeZi7E9lI4vz8EGY",
    "data": {
        "actionCategory": {
            "value": ""
        },
        "actionType": {
            "value": "passive"
        },
        "actions": {
            "value": null
        },
        "description": {
            "value": "<p>When you move through natural terrains, you are difficult to track. You always gain the benefits of the @Compendium[pf2e.actionspf2e.Cover Tracks]{Cover Tracks} action in such terrains, without moving at half your Speed.</p>"
        },
        "featType": {
            "value": "classfeature"
        },
        "level": {
            "value": 5
        },
        "location": "",
        "prerequisites": {
            "value": []
        },
        "rules": [],
        "source": {
            "value": ""
        },
        "traits": {
            "custom": "",
            "rarity": {
                "value": "common"
            },
            "value": [
                "ranger"
            ]
        }
    },
    "effects": [],
    "flags": {},
    "img": "systems/pf2e/icons/features/classes/trackless-step.webp",
    "name": "Trackless Step",
    "type": "feat"
}
