{
    "_id": "rZdaxjM7CFVAEq2e",
    "data": {
        "abilities": {
            "cha": {
                "mod": 0
            },
            "con": {
                "mod": 4
            },
            "dex": {
                "mod": 3
            },
            "int": {
                "mod": -4
            },
            "str": {
                "mod": 4
            },
            "wis": {
                "mod": 3
            }
        },
        "attributes": {
            "ac": {
                "details": "",
                "value": 19
            },
            "allSaves": {
                "value": ""
            },
            "hp": {
                "details": "",
                "max": 65,
                "temp": 0,
                "value": 65
            },
            "initiative": {
                "ability": "perception"
            },
            "perception": {
                "value": 10
            },
            "shield": {
                "ac": 0,
                "brokenThreshold": 0,
                "hardness": 0,
                "max": 0,
                "value": 0
            },
            "speed": {
                "otherSpeeds": [],
                "value": "35"
            }
        },
        "details": {
            "alignment": {
                "value": "N"
            },
            "blurb": "",
            "creatureType": "Animal",
            "level": {
                "value": 3
            },
            "privateNotes": "",
            "publicNotes": "<p>Pachycephalosauruses are normally peaceful herbivorous dinosaurs, but they grow much more violent during their mating season, when they fight one another to win over mates and warn away interlopers. They also defend themselves vehemently when potential predators stray too close to their herd. The pachycephalosaurus's skull has a distinctive dome-shaped crown surrounded by numerous blunt, bony horns. This feature, combined with the dinosaur's powerful, compact neck, allows it to make battering-ram-like charges capable of inflicting great damage.</p>\n<p>Some humanoid groups have successfully trained pachycephalosauruses for use as mounts, but the creatures aren't particularly well suited to the task.</p>\n<p>Pachycephalosauruses grow to a length of 15 feet and weigh 1,400 pounds.</p>",
            "source": {
                "value": "Pathfinder Bestiary 2"
            }
        },
        "resources": {},
        "saves": {
            "fortitude": {
                "saveDetail": "",
                "value": 12
            },
            "reflex": {
                "saveDetail": "",
                "value": 11
            },
            "will": {
                "saveDetail": "",
                "value": 7
            }
        },
        "traits": {
            "attitude": {
                "value": "hostile"
            },
            "ci": [],
            "di": {
                "custom": "",
                "value": []
            },
            "dr": [],
            "dv": [],
            "languages": {
                "custom": "",
                "selected": [],
                "value": []
            },
            "rarity": {
                "value": "common"
            },
            "senses": {
                "value": "low-light vision, scent (imprecise) 30 feet"
            },
            "size": {
                "value": "lg"
            },
            "traits": {
                "custom": "",
                "value": [
                    "animal",
                    "dinosaur"
                ]
            }
        }
    },
    "effects": [],
    "flags": {},
    "img": "systems/pf2e/icons/default-icons/npc.svg",
    "items": [
        {
            "_id": "WpPQsA9BHFxmr54k",
            "data": {
                "attack": {
                    "value": ""
                },
                "attackEffects": {
                    "value": []
                },
                "bonus": {
                    "value": 11
                },
                "damageRolls": {
                    "0": {
                        "damage": "1d10+6",
                        "damageType": "bludgeoning"
                    }
                },
                "description": {
                    "value": ""
                },
                "rules": [],
                "slug": null,
                "source": {
                    "value": ""
                },
                "traits": {
                    "custom": "",
                    "rarity": {
                        "value": "common"
                    },
                    "value": [
                        "forceful",
                        "reach-10"
                    ]
                },
                "weaponType": {
                    "value": "melee"
                }
            },
            "effects": [],
            "flags": {},
            "img": "systems/pf2e/icons/default-icons/melee.svg",
            "name": "Skull",
            "sort": 100000,
            "type": "melee"
        },
        {
            "_id": "MUg2W7zTfRWFuMZY",
            "data": {
                "actionCategory": {
                    "value": "interaction"
                },
                "actionType": {
                    "value": "passive"
                },
                "actions": {
                    "value": null
                },
                "description": {
                    "value": "<p>@Localize[PF2E.NPC.Abilities.Glossary.LowLightVision]</p>"
                },
                "requirements": {
                    "value": ""
                },
                "rules": [],
                "slug": "low-light-vision",
                "source": {
                    "value": ""
                },
                "traits": {
                    "custom": "",
                    "rarity": {
                        "value": "common"
                    },
                    "value": []
                },
                "trigger": {
                    "value": ""
                },
                "weapon": {
                    "value": ""
                }
            },
            "effects": [],
            "flags": {
                "core": {
                    "sourceId": "Compendium.pf2e.bestiary-ability-glossary-srd.fFu2sZz4KB01fVRc"
                }
            },
            "img": "systems/pf2e/icons/default-icons/action.svg",
            "name": "Low-Light Vision",
            "sort": 200000,
            "type": "action"
        },
        {
            "_id": "hxGtO1RrJyi0gVvQ",
            "data": {
                "actionCategory": {
                    "value": "interaction"
                },
                "actionType": {
                    "value": "passive"
                },
                "actions": {
                    "value": null
                },
                "description": {
                    "value": "<p>@Localize[PF2E.NPC.Abilities.Glossary.Scent]</p>"
                },
                "requirements": {
                    "value": ""
                },
                "rules": [],
                "slug": "scent",
                "source": {
                    "value": ""
                },
                "traits": {
                    "custom": "",
                    "rarity": {
                        "value": "common"
                    },
                    "value": []
                },
                "trigger": {
                    "value": ""
                },
                "weapon": {
                    "value": ""
                }
            },
            "effects": [],
            "flags": {
                "core": {
                    "sourceId": "Compendium.pf2e.bestiary-ability-glossary-srd.rqfnQ5VHT5hxm25r"
                }
            },
            "img": "systems/pf2e/icons/default-icons/action.svg",
            "name": "Scent",
            "sort": 300000,
            "type": "action"
        },
        {
            "_id": "uAKDE9WbARcraQJx",
            "data": {
                "actionCategory": {
                    "value": "offensive"
                },
                "actionType": {
                    "value": "action"
                },
                "actions": {
                    "value": 2
                },
                "description": {
                    "value": "<p>The pachycephalosaurus Strides up to its Speed. If it ends its movement within melee reach of a target, it can make a skull Strike against that target. If the pachycephalosaurus critically hits with this Strike, the creature hit is @Compendium[pf2e.conditionitems.Stunned]{Stunned 1}.</p>"
                },
                "requirements": {
                    "value": ""
                },
                "rules": [],
                "slug": null,
                "source": {
                    "value": ""
                },
                "traits": {
                    "custom": "",
                    "rarity": {
                        "value": "common"
                    },
                    "value": []
                },
                "trigger": {
                    "value": ""
                },
                "weapon": {
                    "value": ""
                }
            },
            "effects": [],
            "flags": {},
            "img": "systems/pf2e/icons/actions/TwoActions.webp",
            "name": "Clobbering Charge",
            "sort": 400000,
            "type": "action"
        },
        {
            "_id": "aFiPts0pbbuzRaLf",
            "data": {
                "actionCategory": {
                    "value": "offensive"
                },
                "actionType": {
                    "value": "reaction"
                },
                "actions": {
                    "value": null
                },
                "description": {
                    "value": "<p data-visibility=\"gm\"><strong>Trigger</strong> The pachycephalosaurus damages a Medium or smaller foe with its skull Strike;</p>\n<p><strong>Effect</strong> The pachycephalosaurus digs in and flings its head up, shoving its foe away. It attempts an Athletics check against the target's Fortitude DC.</p>\n<hr />\n<p><strong>Critical Success</strong> The pachycephalosaurus pushes the opponent up to 10 feet away from itself and knocks the target @Compendium[pf2e.conditionitems.Prone]{Prone}.</p>\n<p><strong>Success</strong> The pachycephalosaurus pushes the opponent back 5 feet.</p>\n<p><strong>Failure</strong> The pachycephalosaurus fails to push the opponent.</p>\n<p><strong>Critical Failure</strong> As failure, but the failed attempt leaves the pachycephalosaurus @Compendium[pf2e.conditionitems.Flat-Footed]{Flat-Footed} for 1 round.</p>"
                },
                "requirements": {
                    "value": ""
                },
                "rules": [],
                "slug": null,
                "source": {
                    "value": ""
                },
                "traits": {
                    "custom": "",
                    "rarity": {
                        "value": "common"
                    },
                    "value": [
                        "attack"
                    ]
                },
                "trigger": {
                    "value": ""
                },
                "weapon": {
                    "value": ""
                }
            },
            "effects": [],
            "flags": {},
            "img": "systems/pf2e/icons/actions/Reaction.webp",
            "name": "Sudden Shove",
            "sort": 500000,
            "type": "action"
        },
        {
            "_id": "gMkHuzQOOWXmrAyI",
            "data": {
                "description": {
                    "value": ""
                },
                "item": {
                    "value": 0
                },
                "mod": {
                    "value": 11
                },
                "proficient": {
                    "value": 0
                },
                "rules": [],
                "slug": null,
                "source": {
                    "value": ""
                },
                "traits": {
                    "custom": "",
                    "rarity": {
                        "value": "common"
                    },
                    "value": []
                }
            },
            "effects": [],
            "flags": {},
            "img": "systems/pf2e/icons/default-icons/lore.svg",
            "name": "Athletics",
            "sort": 600000,
            "type": "lore"
        },
        {
            "_id": "1hNpSdQSCutOJYLZ",
            "data": {
                "description": {
                    "value": ""
                },
                "item": {
                    "value": 0
                },
                "mod": {
                    "value": 7
                },
                "proficient": {
                    "value": 0
                },
                "rules": [],
                "slug": null,
                "source": {
                    "value": ""
                },
                "traits": {
                    "custom": "",
                    "rarity": {
                        "value": "common"
                    },
                    "value": []
                }
            },
            "effects": [],
            "flags": {},
            "img": "systems/pf2e/icons/default-icons/lore.svg",
            "name": "Intimidation",
            "sort": 700000,
            "type": "lore"
        }
    ],
    "name": "Pachycephalosaurus",
    "token": {
        "disposition": -1,
        "height": 2,
        "img": "systems/pf2e/icons/default-icons/npc.svg",
        "name": "Pachycephalosaurus",
        "width": 2
    },
    "type": "npc"
}
