{
    "_id": "T5Mt4jXFuh14uREv",
    "data": {
        "ability": {
            "value": ""
        },
        "area": {
            "areaType": "",
            "value": ""
        },
        "category": {
            "value": "spell"
        },
        "components": {
            "material": false,
            "somatic": true,
            "verbal": true
        },
        "cost": {
            "value": ""
        },
        "damage": {
            "value": {}
        },
        "description": {
            "value": "<p>You disrupt the connection between a divine caster or deific servitor and their deity, blocking their use of divine power. If the target fails its save, it is @Compendium[pf2e.conditionitems.Fatigued]{Fatigued}.</p>\n<p>For the spell's duration, whenever the target casts a divine spell, you regain [[/r {6d6}[healing]]]{6d6 Hit Points} and the target must attempt another Will save with the following effects.</p>\n<hr />\n<p><strong>Critical Success</strong> The target is unaffected.</p>\n<p><strong>Success</strong> Each target of the divine spell has an outcome one degree of success better than the result it rolled.</p>\n<p><strong>Failure</strong> The divine spell is lost and target is @Compendium[pf2e.conditionitems.Stunned]{Stunned 1}.</p>\n<p><strong>Critical Failure</strong> As failure, but the target is @Compendium[pf2e.conditionitems.Stunned]{Stunned} for 1 round.</p>"
        },
        "duration": {
            "value": "sustained up to 1 minute"
        },
        "hasCounteractCheck": {
            "value": false
        },
        "level": {
            "value": 9
        },
        "location": {
            "value": ""
        },
        "materials": {
            "value": ""
        },
        "prepared": {
            "value": ""
        },
        "range": {
            "value": "30 feet"
        },
        "rules": [],
        "save": {
            "basic": "",
            "value": "will"
        },
        "school": {
            "value": "enchantment"
        },
        "source": {
            "value": "Pathfinder #162: Ruins of the Radiant Siege"
        },
        "spellType": {
            "value": "save"
        },
        "sustained": {
            "value": false
        },
        "target": {
            "value": "1 creature"
        },
        "time": {
            "value": "2"
        },
        "traditions": {
            "custom": "",
            "value": [
                "arcane",
                "occult"
            ]
        },
        "traits": {
            "custom": "",
            "rarity": {
                "value": "rare"
            },
            "value": []
        }
    },
    "effects": [],
    "flags": {},
    "img": "systems/pf2e/icons/spells/divinity-leech.webp",
    "name": "Divinity Leech",
    "type": "spell"
}
