{
    "_id": "lV8FkHZtzZu7Cy6j",
    "data": {
        "ability": {
            "value": ""
        },
        "area": {
            "areaType": "",
            "value": ""
        },
        "autoHeightenLevel": {
            "value": null
        },
        "category": {
            "value": "focus"
        },
        "components": {
            "focus": false,
            "material": false,
            "somatic": true,
            "verbal": true
        },
        "cost": {
            "value": ""
        },
        "damage": {
            "value": {}
        },
        "description": {
            "value": "<p>You flood your eidolon with power, creating a temporary evolution in your eidolon's capabilities. Choose one of the following effects:</p>\n<ul>\n<li>Your eidolon gains @Compendium[pf2e.ancestryfeatures.Low-Light Vision]{Low-Light Vision} and @Compendium[pf2e.ancestryfeatures.Darkvision]{Darkvision}. @Compendium[pf2e.spell-effects.Spell Effect: Evolution Surge (Sight)]{Spell Effect: Evolution Surge (Sight)}</li>\n<li>Your eidolon gains @Compendium[pf2e.bestiary-ability-glossary-srd.Scent]{Scent} as an imprecise sense up to 30 feet. @Compendium[pf2e.spell-effects.Spell Effect: Evolution Surge (Scent)]{Spell Effect: Evolution Surge (Scent)}</li>\n<li>Your eidolon can breathe underwater and gains a swim Speed equal to its land Speed or 30 feet, whichever is less. Alternatively, if your eidolon is normally aquatic, it can breathe air and gains a land Speed equal to its swim Speed or 30 feet, whichever is less. Either way, it gains the amphibious trait. @Compendium[pf2e.spell-effects.Spell Effect: Evolution Surge (Amphibious)]{Spell Effect: Evolution Surge (Amphibious)}</li>\n<li>Your eidolon gains a +20-foot status bonus to its Speed. @Compendium[pf2e.spell-effects.Spell Effect: Evolution Surge (Speed)]{Spell Effect: Evolution Surge (Speed)}</li>\n</ul>\n<hr />\n<p><strong>Heightened (3rd)</strong> Add the following options to the list of effects you can choose:</p>\n<ul>\n<li>Your eidolon becomes Large, instead of its previous size. This increases your eidolon's reach to 10 feet but doesn't change any other statistics for your eidolon. Because of the special link you share, you can ride your eidolon without getting in each other's way. If another creature tries to ride your eidolon, both you and the riding creature each regain only 2 actions at the start of your turns each round, as normal. @Compendium[pf2e.spell-effects.Spell Effect: Evolution Surge (Large)]{Spell Effect: Evolution Surge (Large)}</li>\n<li>Your eidolon gains a climb Speed equal to its land Speed. @Compendium[pf2e.spell-effects.Spell Effect: Evolution Surge (Climb)]{Spell Effect: Evolution Surge (Climb)}</li>\n</ul>\n<hr />\n<p><strong>Heightened (5th)</strong> Add the options from the 3rd-level version and the following options to the list of effects you can choose:</p>\n<ul>\n<li>Your eidolon becomes Huge, instead of its previous size. This has the same effects as the 3rd-level option to become Large, except your eidolon's reach increases to 15 feet. @Compendium[pf2e.spell-effects.Spell Effect: Evolution Surge (Huge)]{Spell Effect: Evolution Surge (Huge)}</li>\n<li>Your eidolon gains a fly Speed equal to its Speed. @Compendium[pf2e.spell-effects.Spell Effect: Evolution Surge (Fly)]{Spell Effect: Evolution Surge (Fly)}</li>\n</ul>"
        },
        "duration": {
            "value": "1 minute"
        },
        "hasCounteractCheck": {
            "value": false
        },
        "level": {
            "value": 1
        },
        "location": {
            "value": ""
        },
        "materials": {
            "value": ""
        },
        "range": {
            "value": "100 feet"
        },
        "rules": [],
        "save": {
            "basic": "",
            "value": ""
        },
        "school": {
            "value": "transmutation"
        },
        "source": {
            "value": "Pathfinder Secrets of Magic"
        },
        "spellType": {
            "value": "utility"
        },
        "sustained": {
            "value": false
        },
        "target": {
            "value": "your eidolon"
        },
        "time": {
            "value": "2"
        },
        "traditions": {
            "value": []
        },
        "traits": {
            "custom": "",
            "rarity": {
                "value": "uncommon"
            },
            "value": [
                "morph",
                "summoner"
            ]
        }
    },
    "effects": [],
    "flags": {},
    "img": "systems/pf2e/icons/default-icons/spell.svg",
    "name": "Evolution Surge",
    "type": "spell"
}
