{
    "_id": "qJGW6BbIcU6sfA1d",
    "data": {
        "ability": {
            "value": ""
        },
        "area": {
            "areaType": "",
            "value": ""
        },
        "autoHeightenLevel": {
            "value": null
        },
        "category": {
            "value": "spell"
        },
        "components": {
            "focus": false,
            "material": false,
            "somatic": false,
            "verbal": true
        },
        "cost": {
            "value": ""
        },
        "damage": {
            "value": {}
        },
        "description": {
            "value": "<p>You leap forward a few seconds in time, appearing across the battlefield in the blink of an eye. You gain 2 actions, each of which must be used to Leap, Stand, Step, or Stride. If you have an appropriate Speed, you can add @Compendium[pf2e.actionspf2e.Burrow]{Burrow}, @Compendium[pf2e.actionspf2e.Climb]{Climb}, <em>@Compendium[pf2e.spells-srd.Fly]{Fly}</em>, or @Compendium[pf2e.actionspf2e.Swim]{Swim}to this list. While you take these actions, time pauses. All other creatures are completely unaware of your actions, can't speak, and can't use any actions that would be triggered by your movement.</p>\n<p>While you're taking these actions, you can't take any other actions, including any that would be triggered by the move actions. Once the actions are complete, time starts again, and to onlookers, you seem to have suddenly teleported across the distance you traveled. Leaping forward through time is disorienting, so if you use <em>time jump</em> again within 1 minute of using the spell, you become @Compendium[pf2e.conditionitems.Stupefied]{Stupefied 4} for 1 minute.</p>"
        },
        "duration": {
            "value": ""
        },
        "hasCounteractCheck": {
            "value": false
        },
        "level": {
            "value": 3
        },
        "location": {
            "value": ""
        },
        "materials": {
            "value": ""
        },
        "range": {
            "value": ""
        },
        "rules": [],
        "save": {
            "basic": "",
            "value": ""
        },
        "school": {
            "value": "transmutation"
        },
        "source": {
            "value": "Pathfinder Secrets of Magic"
        },
        "spellType": {
            "value": "utility"
        },
        "sustained": {
            "value": false
        },
        "target": {
            "value": ""
        },
        "time": {
            "value": "1"
        },
        "traditions": {
            "custom": "",
            "value": [
                "arcane",
                "occult"
            ]
        },
        "traits": {
            "custom": "",
            "rarity": {
                "value": "common"
            },
            "value": []
        }
    },
    "effects": [],
    "flags": {},
    "img": "systems/pf2e/icons/spells/time-jump.webp",
    "name": "Time Jump",
    "type": "spell"
}
