{
    "_id": "GlejQr3rBh3sn8sL",
    "data": {
        "actionCategory": {
            "value": ""
        },
        "actionType": {
            "value": "passive"
        },
        "actions": {
            "value": null
        },
        "description": {
            "value": "<p>You come from azarketis who abandoned the oceans for the fresh water of inland life. The varied geography of rivers required you to develop advanced physical skills to swim against rapids, leap through cascading waters, and deftly navigate shallow and narrow channels.</p>\n<p>When you succeed at an Athletics check to Swim, you get a critical success instead.</p>"
        },
        "featType": {
            "value": "heritage"
        },
        "level": {
            "value": 1
        },
        "location": "",
        "prerequisites": {
            "value": []
        },
        "rules": [
            {
                "key": "Note",
                "predicate": {
                    "all": [
                        "action:swim"
                    ]
                },
                "selector": "athletics",
                "text": "<p class='compact-text'><strong>{item|name}</strong> When you succeed at an Athletics check to Swim, you get a critical success instead.</p>"
            },
            {
                "adjustment": {
                    "success": "one-degree-better"
                },
                "key": "AdjustDegreeOfSuccess",
                "predicate": {
                    "all": [
                        "action:swim"
                    ]
                },
                "selector": "athletics"
            }
        ],
        "source": {
            "value": ""
        },
        "traits": {
            "custom": "",
            "rarity": {
                "value": "common"
            },
            "value": [
                "azarketi"
            ]
        }
    },
    "effects": [],
    "flags": {},
    "img": "systems/pf2e/icons/default-icons/feat.svg",
    "name": "River Azarketi",
    "type": "feat"
}
