{
    "_id": "y24ykEUfpIu5Gp6D",
    "data": {
        "actionCategory": {
            "value": ""
        },
        "actionType": {
            "value": "passive"
        },
        "actions": {
            "value": null
        },
        "description": {
            "value": "<p>Sporting a bulkier, powerful design, your body has been designed for combat. You have a bulky, humanoid shape. The damage die for your fist increases to 1d6 instead of 1d4. You don't take a penalty when making a lethal attack with your fist or any other unarmed attack.</p>"
        },
        "featType": {
            "value": "heritage"
        },
        "level": {
            "value": 0
        },
        "location": "",
        "prerequisites": {
            "value": []
        },
        "rules": [
            {
                "key": "DamageDice",
                "override": {
                    "dieSize": "d6"
                },
                "selector": "unarmed-strike-damage"
            }
        ],
        "source": {
            "value": "Pathfinder Guns & Gears"
        },
        "traits": {
            "custom": "",
            "rarity": {
                "value": "common"
            },
            "value": [
                "automaton"
            ]
        }
    },
    "effects": [],
    "flags": {},
    "img": "systems/pf2e/icons/default-icons/feat.svg",
    "name": "Warrior Automaton",
    "type": "feat"
}
