{
    "_id": "mrlQrZd0yBwOj2lk",
    "data": {
        "actionCategory": {
            "value": ""
        },
        "actionType": {
            "value": "passive"
        },
        "actions": {
            "value": null
        },
        "description": {
            "value": "<p><strong>[Slotless]</strong></p>\n<p><strong>Cost</strong>: 6 Fame</p>\n<p><strong>Prerequisites</strong><strong>:</strong> Tier 3 with any faction, @Compendium[pf2e.pathfinder-society-boons.Hireling, Expert]{Expert Hireling}</p>\n<p><strong>Effect</strong>: When you gain this boon, select one @Compendium[pf2e.pathfinder-society-boons.Hireling]{Hireling} boon you possess. The selected ally adds a second Lore skill to the list of skill checks they can attempt. In addition, select one skill feat whose prerequisite is being trained in one of the hireling's selected skills. The hireling gains the benefits of that skill feat when attempting skill checks.</p>\n<p><strong>Special</strong>: You can purchase this boon multiple times. Each time you purchase this boon, you must apply its benefits to a different Hireling boon.</p>"
        },
        "featType": {
            "value": "pfsboon"
        },
        "level": {
            "value": 0
        },
        "prerequisites": {
            "value": []
        },
        "rules": [],
        "source": {
            "value": ""
        },
        "traits": {
            "custom": "",
            "rarity": {
                "value": "common"
            },
            "selected": {},
            "value": []
        }
    },
    "effects": [],
    "flags": {},
    "img": "systems/pf2e/icons/default-icons/mystery-man.webp",
    "name": "Hireling, Professional",
    "type": "feat"
}
