{
    "_id": "xVyXTjsG8iIe6wLj",
    "content": "<p>Play after a creature or hazard hits you with a Strike.</p>\n<hr />\n<p>You take the minimum amount of damage and fall @Compendium[pf2e.conditionitems.Prone]{Prone}.</p>",
    "flags": {},
    "name": "Tuck and Roll",
    "permission": {
        "default": 0
    }
}
