{
    "_id": "HA93YJ0qjmRk0Nh8",
    "data": {
        "attributes": {
            "ac": {
                "check": 0,
                "details": "",
                "value": 25
            },
            "collisionDC": {
                "value": 27
            },
            "collisionDamage": {
                "value": "7d10"
            },
            "hardness": 15,
            "hp": {
                "brokenThreshold": 5,
                "details": "",
                "max": 170,
                "temp": 0,
                "value": 170
            }
        },
        "details": {
            "AC": 0,
            "crew": "1 pilot, 20 rowers",
            "description": "",
            "level": {
                "value": 10
            },
            "passengers": "6",
            "pilotingCheck": "Sailing Lore (DC 27), Diplomacy (DC 29), Or Intimidation (DC 29)",
            "price": "3000",
            "space": {
                "high": 25,
                "long": 130,
                "wide": 20
            },
            "speed": "swim 30 feet (rowed, wind)"
        },
        "saves": {
            "fortitude": {
                "item": 0,
                "rank": 0,
                "saveDetail": "",
                "value": 19
            }
        },
        "source": {
            "value": "Pathfinder Gamemastery Guide"
        },
        "traits": {
            "ci": [],
            "di": {
                "custom": "",
                "value": [
                    "critical-hits",
                    "object-immunities",
                    "precision"
                ]
            },
            "dr": [],
            "dv": [
                {
                    "label": "Fire",
                    "type": "fire",
                    "value": "15"
                }
            ],
            "rarity": {
                "value": "common"
            },
            "size": {
                "value": "grg"
            },
            "traits": {
                "custom": "",
                "value": []
            }
        }
    },
    "effects": [],
    "flags": {},
    "img": "systems/pf2e/icons/default-icons/vehicle.svg",
    "items": [
        {
            "_id": "tFb8nV3bxHVLeU8Z",
            "data": {
                "actionCategory": {
                    "value": "interaction"
                },
                "actionType": {
                    "value": "passive"
                },
                "actions": {
                    "value": null
                },
                "description": {
                    "value": "<p>With a full complement of skilled rowers, a rowed galley can turn swiftly, turn in place, and even row backwards. Each 90-degree turn made in less than a vehicle length costs 5 extra feet of movement. It can row backwards no faster than half its speed, and it can't turn while rowing backwards.</p>"
                },
                "requirements": {
                    "value": ""
                },
                "rules": [],
                "slug": null,
                "source": {
                    "value": ""
                },
                "traits": {
                    "custom": "",
                    "rarity": {
                        "value": "common"
                    },
                    "value": []
                },
                "trigger": {
                    "value": ""
                },
                "weapon": {
                    "value": ""
                }
            },
            "effects": [],
            "flags": {},
            "img": "systems/pf2e/icons/actions/Passive.webp",
            "name": "Maneuverable",
            "sort": 0,
            "type": "action"
        }
    ],
    "name": "Galley",
    "token": {
        "disposition": 0,
        "height": 26,
        "img": "systems/pf2e/icons/default-icons/vehicle.svg",
        "name": "Galley",
        "width": 4
    },
    "type": "vehicle"
}
